<?xml version="1.0" standalone="no"?>
<!DOCTYPE svg PUBLIC "-//W3C//DTD SVG 1.1//EN" "http://www.w3.org/Graphics/SVG/1.1/DTD/svg11.dtd" >
<svg xmlns="http://www.w3.org/2000/svg">
<metadata>Generated by IcoMoon</metadata>
<defs>
<font id="icomoon" horiz-adv-x="1024">
<font-face units-per-em="1024" ascent="960" descent="-64" />
<missing-glyph horiz-adv-x="1024" />
<glyph unicode="&#x20;" horiz-adv-x="512" d="" />
<glyph unicode="&#xe900;" glyph-name="Sale" d="M252.587 519.68c110.933 0 199.68 88.747 199.68 199.68s-88.747 199.68-199.68 199.68-199.68-90.453-199.68-199.68c0-110.933 88.747-199.68 199.68-199.68v0zM252.587 785.92c37.547 0 68.267-30.72 68.267-68.267s-30.72-68.267-68.267-68.267c-37.547 0-68.267 30.72-68.267 68.267 0 39.253 30.72 68.267 68.267 68.267v0zM913.067 855.893c-25.6 25.6-68.267 25.6-93.867 0l-703.147-703.147c-25.6-25.6-25.6-68.267 0-93.867 13.653-13.653 29.013-18.773 46.080-18.773s34.133 6.827 46.080 18.773l703.147 703.147c27.307 25.6 27.307 68.267 1.707 93.867v0zM776.533 395.093c-110.933 0-199.68-90.453-199.68-199.68s88.747-199.68 199.68-199.68c110.933 0 199.68 90.453 199.68 199.68s-90.453 199.68-199.68 199.68v0zM776.533 127.147c-37.547 0-68.267 30.72-68.267 68.267s30.72 68.267 68.267 68.267c37.547 0 68.267-30.72 68.267-68.267-1.707-37.547-30.72-68.267-68.267-68.267v0z" />
<glyph unicode="&#xe901;" glyph-name="Chemicals" d="M319.147 767.147l90.453 1.707 3.413-47.787h141.653l58.027 141.653h124.587v80.213h-257.707c-29.013 0-47.787-18.773-47.787-18.773s-90.453-88.747-116.053-112.64c-44.373-39.253 3.413-44.373 3.413-44.373v0zM754.347 872.96l47.787 11.947v30.72l-47.787 17.067v-59.733zM390.827 705.707h189.44v-63.147h-189.44v63.147zM660.48 243.2c0 143.36-78.507 177.493-85.333 186.027-8.533 8.533-13.653 15.36-13.653 30.72s20.48 27.307 20.48 44.373c0 29.013-20.48 34.133-20.48 47.787 0 23.893 17.067 22.187 17.067 42.667 0 27.307-17.067 34.133-17.067 34.133s-131.413 1.707-160.427 0c-121.173-194.56-119.467-394.24-119.467-394.24v-216.747c0-47.787 22.187-51.2 22.187-51.2h336.213c23.893 0 18.773 32.427 18.773 32.427l1.707 244.053zM793.6 674.987c-71.68 73.387-73.387 174.080-73.387 174.080h-87.040c18.773-105.813 83.627-162.133 128-187.733 23.893-13.653 30.72-11.947 34.133-6.827 11.947 10.24-1.707 20.48-1.707 20.48v0z" />
<glyph unicode="&#xe902;" glyph-name="Baby" d="M648.533 697.173c-40.96 40.96-95.573 64.853-155.307 64.853-58.027 0-112.64-22.187-155.307-64.853l-247.467-247.467c-85.333-85.333-85.333-223.573 0-308.907l110.933-110.933c40.96-40.96 95.573-64.853 155.307-64.853 58.027 0 112.64 22.187 155.307 63.147l247.467 247.467c40.96 40.96 63.147 95.573 63.147 155.307 0 58.027-22.187 112.64-63.147 155.307l-110.933 110.933zM727.040 354.133l-100.693 100.693c-15.36 15.36-37.547 15.36-52.907 0-15.36-13.653-15.36-37.547 0-52.907l104.107-104.107-59.733-59.733-104.107 104.107c-15.36 15.36-37.547 15.36-52.907 0s-15.36-37.547 0-52.907l104.107-104.107-59.733-59.733-104.107 104.107c-15.36 13.653-37.547 13.653-52.907 0-15.36-15.36-15.36-37.547 0-52.907l104.107-104.107c-54.613-49.493-146.773-49.493-199.68 3.413l-109.227 116.053c-56.32 56.32-56.32 148.48 0 203.093l247.467 247.467c27.307 27.307 63.147 42.667 102.4 42.667s75.093-15.36 102.4-42.667l112.64-112.64c27.307-27.307 42.667-63.147 42.667-102.4-1.707-23.893-10.24-49.493-23.893-73.387v0zM942.080 784.213c-11.947-11.947-10.24-35.84-5.12-44.373 29.013-46.080 23.893-88.747-18.773-131.413l-42.667-42.667c-18.773-18.773-63.147 27.307-117.76 81.92l-46.080 46.080c-54.613 54.613-102.4 97.28-81.92 117.76l42.667 42.667c42.667 42.667 83.627 47.787 129.707 20.48 8.533-5.12 32.427-8.533 46.080 3.413 10.24 11.947 39.253 40.96 39.253 40.96 17.067 17.067 39.253 11.947 58.027-6.827l30.72-30.72c17.067-17.067 23.893-39.253 6.827-58.027-1.707 0-29.013-27.307-40.96-39.253v0z" />
<glyph unicode="&#xe903;" glyph-name="Cosmetics" d="M846.507 268.8l-10.24 290.133c-1.707 30.72-23.893 56.32-52.907 64.853v136.533c0 22.187-13.653 51.2-30.72 64.853l-122.88 102.4c-6.827 5.12-13.653 8.533-22.187 8.533-6.827 0-13.653-3.413-18.773-10.24-3.413-5.12-5.12-11.947-5.12-20.48v-283.307c-29.013-6.827-51.2-34.133-52.907-64.853l-10.24-290.133c-18.773-6.827-30.72-23.893-30.72-42.667v-226.987c0-25.6 20.48-46.080 46.080-46.080h295.253c25.6 0 46.080 20.48 46.080 46.080v228.693c1.707 18.773-11.947 35.84-30.72 42.667v0zM578.56 270.507l8.533 252.587c0 15.36 13.653 29.013 29.013 29.013h136.533c15.36 0 29.013-11.947 29.013-29.013l8.533-252.587h-211.627zM172.373 785.92c-10.24 0-17.067-6.827-17.067-13.653s8.533-13.653 17.067-13.653h107.52v-23.893h-83.627c-10.24 0-17.067-6.827-17.067-13.653s8.533-13.653 17.067-13.653h83.627v-20.48h-59.733c-10.24 0-17.067-6.827-17.067-13.653s8.533-13.653 17.067-13.653h59.733v-23.893h-37.547c-10.24 0-17.067-6.827-17.067-13.653s8.533-13.653 17.067-13.653h37.547v-153.6h-75.093c-25.6 0-46.080-15.36-46.080-34.133v-433.493c0-18.773 20.48-34.133 46.080-34.133h204.8c25.6 0 46.080 15.36 46.080 34.133v433.493c0 18.773-20.48 34.133-46.080 34.133h-75.093v153.6h37.547c10.24 0 17.067 6.827 17.067 13.653s-8.533 13.653-17.067 13.653h-37.547v22.187h59.733c10.24 0 17.067 6.827 17.067 13.653s-8.533 13.653-17.067 13.653h-59.733v22.187h83.627c10.24 0 17.067 6.827 17.067 13.653s-8.533 13.653-17.067 13.653h-83.627v23.893h107.52c10.24 0 17.067 6.827 17.067 13.653s-8.533 13.653-17.067 13.653h-107.52v23.893h83.627c10.24 0 17.067 6.827 17.067 13.653s-8.533 13.653-17.067 13.653h-83.627v22.187h59.733c10.24 0 17.067 6.827 17.067 13.653s-8.533 13.653-17.067 13.653h-59.733v23.893h37.547c10.24 0 17.067 6.827 17.067 13.653s-8.533 13.653-17.067 13.653h-129.707c-10.24 0-17.067-6.827-17.067-13.653s8.533-13.653 17.067-13.653h37.547v-23.893h-59.733c-10.24 0-17.067-6.827-17.067-13.653s8.533-13.653 17.067-13.653h59.733v-22.187h-83.627c-10.24 0-17.067-6.827-17.067-13.653s8.533-13.653 17.067-13.653h83.627v-22.187l-107.52-1.707z" />
<glyph unicode="&#xe904;" glyph-name="Hygiene" d="M465.92 714.24h-261.12l-63.147-713.387h387.413l-63.147 713.387zM141.653-14.507h389.12v-32.427h-389.12v32.427zM389.12 796.16h-105.813l-51.2-64.853h209.92l-52.907 64.853zM395.947 811.52h18.773l-29.013 114.347h-100.693l-29.013-114.347h18.773c0 0 121.173 0 121.173 0zM745.813 193.707c-1.707 52.907-8.533 102.4-17.067 141.653-6.827 49.493-30.72 80.213-29.013 134.827 3.413 64.853-63.147 116.053-63.147 215.040 0 126.293 83.627 228.693 34.133 228.693s-88.747-102.4-88.747-228.693c0-90.453 49.493-145.067 49.493-204.8l10.24-114.347c-10.24-42.667-17.067-105.813-13.653-175.787 5.12-128 35.84-230.4 68.267-230.4 32.427 1.707 54.613 105.813 49.493 233.813v0zM708.267 528.213h68.267c10.24 0 18.773 8.533 18.773 18.773s-8.533 18.773-18.773 18.773h-68.267c-10.24 0-18.773-8.533-18.773-18.773s8.533-18.773 18.773-18.773v0zM679.253 593.067h68.267c10.24 0 18.773 8.533 18.773 18.773s-8.533 18.773-18.773 18.773h-68.267c-10.24 0-18.773-8.533-18.773-18.773s8.533-18.773 18.773-18.773v0zM670.72 661.333h68.267c10.24 0 18.773 8.533 18.773 18.773s-8.533 18.773-18.773 18.773h-68.267c-10.24 0-18.773-8.533-18.773-18.773s8.533-18.773 18.773-18.773v0zM759.467 753.493c0 10.24-8.533 18.773-18.773 18.773h-68.267c-10.24 0-18.773-8.533-18.773-18.773s8.533-18.773 18.773-18.773h68.267c10.24 0 18.773 8.533 18.773 18.773v0zM675.84 818.347c0-10.24 8.533-18.773 18.773-18.773h68.267c10.24 0 17.067 8.533 18.773 18.773 0 10.24-8.533 17.067-18.773 18.773h-68.267c-11.947-1.707-18.773-8.533-18.773-18.773v0zM709.973 872.96h68.267c10.24 0 18.773 8.533 18.773 18.773s-8.533 18.773-18.773 18.773h-68.267c-10.24 0-18.773-8.533-18.773-18.773 1.707-11.947 8.533-20.48 18.773-18.773v0zM776.533 591.36c0-10.24 8.533-18.773 18.773-18.773h25.6c10.24 0 18.773 8.533 18.773 18.773s-8.533 18.773-18.773 18.773h-25.6c-10.24-1.707-18.773-10.24-18.773-18.773v0zM773.12 651.093c0-10.24 8.533-18.773 18.773-18.773h44.373c10.24 0 17.067 8.533 18.773 18.773 0 10.24-8.533 18.773-18.773 18.773h-44.373c-10.24-1.707-18.773-10.24-18.773-18.773v0zM774.827 717.653c0-10.24 8.533-18.773 18.773-18.773h49.493c10.24 0 17.067 8.533 17.067 17.067 0 10.24-8.533 18.773-18.773 18.773h-49.493c-10.24 0-17.067-6.827-17.067-17.067v0zM788.48 782.507c0-10.24 8.533-18.773 18.773-18.773h25.6c10.24 0 18.773 8.533 18.773 18.773s-8.533 17.067-18.773 18.773h-25.6c-11.947 0-18.773-8.533-18.773-18.773v0zM802.133 826.88h18.773c10.24 0 18.773 8.533 18.773 18.773s-8.533 18.773-18.773 18.773h-18.773c-10.24 0-18.773-8.533-18.773-18.773 0-11.947 8.533-18.773 18.773-18.773v0z" />
<glyph unicode="&#xe905;" glyph-name="Dress" d="M914.773 241.493c35.84 0 66.56 25.6 76.8 58.027 8.533 35.84-6.827 71.68-37.547 90.453l-344.747 196.267c-40.96 22.187-64.853 22.187-66.56 22.187v20.48c66.56 15.36 117.76 73.387 117.76 143.36 0 81.92-68.267 148.48-150.187 148.48-54.613 0-97.28-29.013-124.587-75.093-8.533-15.36-1.707-34.133 11.947-40.96 15.36-8.533 34.133-1.707 42.667 11.947 11.947 25.6 40.96 40.96 71.68 40.96 46.080 0 85.333-37.547 85.333-85.333s-37.547-85.333-85.333-85.333c-8.533 0-17.067-3.413-22.187-8.533-6.827-6.827-8.533-15.36-8.533-22.187v-49.493c0 0-29.013-1.707-64.853-23.893-90.453-49.493-351.573-194.56-351.573-194.56-30.72-17.067-46.080-54.613-37.547-90.453s39.253-58.027 76.8-58.027h143.36v-201.387c0-34.133 29.013-63.147 63.147-63.147h395.947c34.133 0 63.147 27.307 63.147 63.147v201.387l145.067 1.707zM930.133 316.587c-1.707-6.827-8.533-11.947-17.067-11.947h-143.36v20.48c0 34.133-29.013 59.733-63.147 59.733h-395.947c-34.133 0-63.147-27.307-63.147-59.733v-20.48h-141.653c-8.533 0-15.36 3.413-17.067 11.947-1.707 6.827 1.707 15.36 8.533 18.773l346.453 194.56c20.48 11.947 44.373 17.067 66.56 17.067s46.080-6.827 66.56-17.067l346.453-196.267c5.12-3.413 8.533-10.24 6.827-17.067v0z" />
<glyph unicode="&#xe906;" glyph-name="Parfume" d="M866.987 668.16c-105.813 112.64-278.187 163.84-430.080 170.667-3.413 8.533-10.24 13.653-18.773 13.653h-59.733c-8.533 40.96-37.547 83.627-69.973 83.627-40.96 0-73.387-66.56-73.387-112.64 0-32.427 17.067-59.733 40.96-73.387 0-1.707-1.707-3.413-1.707-5.12v-15.36c-25.6-1.707-56.32-8.533-59.733-20.48-6.827-22.187 68.267-39.253-13.653-121.173s-128-160.427 0-349.867c128-191.147-39.253-250.88-39.253-250.88v-13.653h293.547v13.653c0 0-167.253 59.733-39.253 250.88s81.92 269.653 0 349.867c-81.92 81.92-6.827 98.987-13.653 121.173-3.413 13.653-34.133 18.773-59.733 20.48v15.36c0 1.707 0 3.413-1.707 5.12 17.067 8.533 29.013 25.6 35.84 44.373h61.44c8.533 0 15.36 5.12 18.773 11.947 136.533-5.12 279.893-49.493 385.707-138.24 126.293-107.52 131.413-310.613 10.24-423.253-46.080 30.72-129.707 15.36-199.68-40.96-80.213-63.147-112.64-155.307-73.387-206.507 39.253-49.493 136.533-39.253 216.747 23.893 76.8 63.147 110.933 151.893 76.8 203.093 124.587 114.347 128 320.853 13.653 443.733v0z" />
<glyph unicode="&#xe907;" glyph-name="Gifts" d="M102.4 360.96h37.547v-349.867c0-18.773 13.653-34.133 34.133-34.133h677.547c18.773 0 34.133 13.653 34.133 34.133v349.867h35.84c18.773 0 34.133 13.653 34.133 34.133v244.053c0 18.773-13.653 34.133-34.133 34.133h-167.253c78.507 40.96 117.76 78.507 122.88 122.88 3.413 27.307-5.12 64.853-61.44 100.693-61.44 35.84-110.933 29.013-143.36 15.36-52.907-20.48-98.987-73.387-136.533-155.307-5.12-11.947-10.24-23.893-15.36-35.84-5.12 11.947-10.24 23.893-15.36 35.84-39.253 81.92-83.627 133.12-136.533 155.307-32.427 13.653-81.92 20.48-143.36-15.36-56.32-34.133-63.147-73.387-59.733-100.693 5.12-42.667 44.373-80.213 122.88-122.88h-186.027c-18.773 0-34.133-15.36-34.133-34.133v-244.053c0-20.48 13.653-34.133 34.133-34.133v0zM209.92 360.96h266.24v-314.027h-266.24v314.027zM812.373 46.933h-264.533v314.027h266.24l-1.707-314.027zM884.053 432.64h-336.213v170.667h337.92v-170.667zM600.747 727.893c30.72 64.853 64.853 105.813 98.987 119.467 8.533 3.413 17.067 5.12 27.307 5.12 17.067 0 34.133-5.12 52.907-17.067s29.013-23.893 29.013-30.72c-3.413-32.427-107.52-88.747-226.987-126.293 5.12 17.067 11.947 32.427 18.773 49.493v0zM235.52 806.4c-1.707 6.827 10.24 18.773 29.013 30.72s35.84 17.067 51.2 17.067c10.24 0 18.773-1.707 27.307-5.12 54.613-22.187 95.573-105.813 119.467-167.253-119.467 35.84-223.573 92.16-226.987 124.587v0zM138.24 603.307h337.92v-170.667h-337.92v170.667z" />
<glyph unicode="&#xe908;" glyph-name="Foods" d="M721.92 936.107c-58.027 0-107.52-46.080-110.933-104.107l-30.72-418.133c-1.707-18.773 5.12-35.84 17.067-49.493s30.72-20.48 47.787-20.48h1.707l-10.24-327.68c0-13.653 5.12-27.307 15.36-37.547s23.893-15.36 37.547-15.36h42.667c29.013 0 52.907 22.187 52.907 51.2v860.16c0 34.133-29.013 61.44-63.147 61.44v0zM474.453 936.107h-5.12c-10.24 0-18.773-8.533-18.773-18.773v-184.32c0-17.067-13.653-29.013-30.72-29.013h-5.12c-17.067 0-30.72 13.653-30.72 29.013v184.32c0 10.24-8.533 18.773-18.773 18.773h-5.12c-10.24 0-18.773-8.533-18.773-18.773v-184.32c0-17.067-13.653-29.013-29.013-29.013h-5.12c-17.067 0-29.013 13.653-29.013 29.013v184.32c0 10.24-8.533 18.773-18.773 18.773h-5.12c-10.24 0-18.773-8.533-18.773-18.773v-278.187c0-34.133 27.307-61.44 61.44-61.44h8.533l-17.067-561.493c0-13.653 5.12-27.307 15.36-37.547s23.893-15.36 37.547-15.36h40.96c13.653 0 27.307 5.12 37.547 15.36s15.36 23.893 15.36 37.547l-17.067 561.493h11.947c34.133 0 61.44 27.307 61.44 61.44v278.187c1.707 10.24-6.827 18.773-17.067 18.773v0z" />
<glyph unicode="&#xe909;" glyph-name="Cleaning" d="M902.827 925.867l-225.28-438.613c1.707 0 3.413 0 3.413-1.707 10.24-3.413 18.773-6.827 27.307-11.947 10.24-5.12 18.773-11.947 27.307-18.773l225.28 440.32c8.533 15.36 1.707 35.84-13.653 44.373-17.067 8.533-35.84 1.707-44.373-13.653v0zM157.013 113.493c35.84-32.427 80.213-61.44 131.413-83.627 87.040-39.253 162.133-51.2 165.547-51.2 0 0 0 0 0 0 1.707 0 1.707 0 3.413 0 0 0 0 0 0 0 90.453 3.413 162.133 32.427 209.92 90.453 64.853 75.093 87.040 186.027 81.92 283.307-1.707 27.307-11.947 56.32-30.72 75.093-1.707 1.707-3.413 3.413-5.12 5.12-6.827 6.827-13.653 11.947-22.187 15.36-6.827 3.413-13.653 6.827-22.187 8.533-3.413 1.707-6.827 1.707-8.533 1.707-5.12 0-8.533 1.707-13.653 1.707-32.427 0-61.44-20.48-85.333-40.96s-47.787-44.373-75.093-61.44c-29.013-20.48-63.147-29.013-97.28-39.253-44.373-11.947-88.747-20.48-134.827-25.6-40.96-5.12-81.92-6.827-122.88-6.827-15.36 0-32.427 0-47.787 1.707-1.707 0-1.707 0-3.413 0 0 0-1.707 0-1.707 0-6.827 0-13.653-3.413-17.067-8.533-5.12-5.12-5.12-13.653-3.413-20.48 20.48-56.32 52.907-104.107 98.987-145.067v0zM124.587 239.787v0c1.707 0 5.12 0 6.827 0 32.427 0 78.507 1.707 129.707 6.827 109.227 11.947 197.973 39.253 264.533 78.507 1.707 1.707 3.413 1.707 6.827 1.707 1.707 0 3.413 0 5.12-1.707 39.253-22.187 100.693-52.907 143.36-68.267 5.12-1.707 8.533-6.827 8.533-13.653-5.12-46.080-20.48-102.4-58.027-146.773-39.253-46.080-97.28-69.973-174.080-73.387 0 0 0 0 0 0-1.707 0-1.707 0-3.413 0-6.827 1.707-25.6 5.12-51.2 11.947 6.827 3.413 15.36 6.827 22.187 11.947 6.827 3.413 13.653 8.533 20.48 11.947 20.48 13.653 40.96 29.013 56.32 40.96 3.413 3.413 0 8.533-3.413 6.827-34.133-13.653-78.507-23.893-117.76-30.72-11.947-1.707-23.893-3.413-35.84-5.12-13.653-1.707-23.893-3.413-34.133-3.413-1.707 1.707-5.12 1.707-6.827 3.413-22.187 10.24-42.667 20.48-61.44 32.427 8.533 0 17.067 1.707 25.6 3.413s15.36 3.413 23.893 5.12c23.893 6.827 46.080 13.653 59.733 20.48 3.413 1.707 1.707 5.12-1.707 5.12-27.307-3.413-66.56-3.413-98.987-1.707-10.24 0-20.48 0-29.013 0-11.947 0-22.187 0-27.307 1.707-3.413 3.413-6.827 6.827-10.24 10.24-5.12 3.413-8.533 8.533-13.653 11.947 6.827 0 13.653 1.707 20.48 3.413s13.653 3.413 20.48 5.12c25.6 6.827 51.2 15.36 68.267 22.187 3.413 1.707 1.707 5.12-1.707 5.12-23.893-3.413-59.733-3.413-90.453-3.413-8.533 0-15.36 0-22.187 0-8.533 0-15.36 0-22.187 0-8.533 11.947-17.067 23.893-23.893 37.547-1.707 5.12 1.707 10.24 5.12 10.24v0zM901.12 125.44c0-29.013-23.893-52.907-52.907-52.907s-52.907 23.893-52.907 52.907c0 29.013 23.893 52.907 52.907 52.907s52.907-23.893 52.907-52.907v0zM761.173 4.267c0-15.36-11.947-27.307-27.307-27.307s-27.307 11.947-27.307 27.307 11.947 27.307 27.307 27.307 27.307-11.947 27.307-27.307v0zM906.24 11.093c0-15.36-11.947-27.307-27.307-27.307s-27.307 11.947-27.307 27.307c0 15.36 11.947 27.307 27.307 27.307s27.307-11.947 27.307-27.307v0z" />
<glyph unicode="&#xe90a;" glyph-name="Proff" d="M17.067 741.547h104.107v-39.253h-104.107v39.253zM17.067 779.093h104.107v35.84h-104.107v-35.84zM17.067 628.907h104.107v35.84h-104.107v-35.84zM996.693 19.627c-1.707 0-1.707 0-5.12 0-88.747 0-192.853 69.973-237.227 138.24-40.96-6.827-80.213 17.067-93.867 58.027l-46.080 141.653c-6.827 0-11.947 0-18.773 0-129.707 0-233.813 105.813-233.813 237.227 0 6.827 0 13.653 1.707 20.48h-194.56v215.040h426.667c129.707 0 233.813-105.813 233.813-237.227 0-61.44-22.187-116.053-59.733-157.013l54.613-163.84c11.947-37.547-1.707-76.8-30.72-98.987 40.96-58.027 129.707-117.76 203.093-114.347v-39.253zM680.96 593.067c0 47.787-39.253 87.040-85.333 87.040-47.787 0-85.333-39.253-85.333-87.040s37.547-87.040 85.333-87.040c47.787 0 85.333 39.253 85.333 87.040v0z" />
<glyph unicode="&#xe90b;" glyph-name="Animal" d="M23.893 183.467c1.707-13.653 15.36-25.6 29.013-25.6h68.267c13.653 0 25.6 11.947 27.307 25.6v10.24c0 13.653-6.827 34.133-17.067 42.667l-6.827 6.827c-10.24 10.24-10.24 25.6 1.707 34.133l73.387 76.8c11.947 8.533 25.6 5.12 32.427-6.827l81.92-165.547c6.827-11.947 22.187-22.187 37.547-22.187h54.613c13.653 0 23.893 11.947 23.893 25.6v1.707c-1.707 13.653-11.947 32.427-22.187 40.96l-23.893 17.067c-11.947 8.533-22.187 37.547-15.36 49.493 0 0 6.827 17.067 49.493 17.067h97.28c10.24 0 13.653-10.24 18.773-23.893l44.373-105.813c5.12-13.653 22.187-23.893 35.84-23.893h68.267c13.653 0 25.6 10.24 23.893 23.893 0 13.653-10.24 30.72-22.187 39.253l-47.787 37.547c-10.24 8.533-30.72 51.2-20.48 56.32l44.373 29.013c15.36 8.533 25.6 11.947 35.84 1.707l180.907-168.96c10.24-10.24 30.72-17.067 44.373-17.067h51.2c13.653 0 25.6 10.24 25.6 22.187s-10.24 27.307-23.893 32.427l-42.667 20.48c-11.947 6.827-29.013 20.48-37.547 32.427l-112.64 179.2c-6.827 11.947-3.413 27.307 8.533 35.84l35.84 22.187c11.947 6.827 32.427 13.653 47.787 13.653h17.067c13.653 0 40.96 8.533 51.2 20.48l18.773 22.187c8.533 10.24 8.533 29.013 0 39.253 0 0-88.747 85.333-88.747 100.693v34.133c0 13.653-10.24 18.773-20.48 11.947l-249.173-168.96c-11.947-8.533-32.427-13.653-46.080-13.653h-256c-13.653 0-32.427 8.533-42.667 18.773l-124.587 136.533c-8.533 10.24-25.6 11.947-35.84 1.707l-59.733-56.32c-10.24-10.24-8.533-13.653 5.12-10.24l39.253 13.653c13.653 5.12 30.72-1.707 39.253-13.653l59.733-88.747c8.533-11.947 6.827-29.013-5.12-39.253l-92.16-107.52c-10.24-10.24-22.187-29.013-27.307-40.96l-34.133-98.987c-5.12-13.653-6.827-35.84-5.12-49.493l6.827-46.080z" />
<glyph unicode="&#xe90c;" glyph-name="Brandzone" d="M962.56 922.453c-5.12 15.36-22.187 23.893-37.547 18.773s-23.893-22.187-18.773-37.547c44.373-129.707-44.373-228.693-112.64-279.893l-27.307 39.253c-8.533 13.653-30.72 23.893-46.080 23.893h-153.6c-15.36 0-39.253-6.827-52.907-17.067l-453.973-320.853c-22.187-15.36-27.307-46.080-11.947-68.267l206.507-298.667c15.36-22.187 40.96-20.48 61.44-3.413l453.973 322.56c13.653 8.533 29.013 29.013 34.133 44.373l47.787 153.6c5.12 15.36 1.707 39.253-6.827 52.907l-17.067 23.893c92.16 69.973 187.733 194.56 134.827 346.453v0zM750.933 465.067c-35.84-25.6-83.627-17.067-109.227 18.773-23.893 35.84-15.36 85.333 18.773 109.227 27.307 20.48 64.853 18.773 90.453-1.707-13.653-8.533-22.187-11.947-23.893-13.653-15.36-6.827-20.48-23.893-13.653-39.253 5.12-10.24 15.36-17.067 27.307-17.067 3.413 0 8.533 1.707 11.947 3.413 8.533 5.12 18.773 10.24 30.72 15.36 3.413-25.6-6.827-56.32-32.427-75.093v0z" />
<glyph unicode="&#xe90d;" glyph-name="New" d="M1005.227 442.88v0 0l-92.16 92.16 42.667 122.88h-1.707l-122.88 42.667-11.947 129.707v1.707l-129.707-13.653-68.267 109.227-110.933-68.267-110.933 68.267-68.267-109.227h-1.707l-129.707 13.653-15.36-129.707-122.88-42.667 42.667-122.88-92.16-92.16 90.453-92.16-42.667-122.88h1.707v-1.707l122.88-42.667 15.36-128v-1.707l129.707 13.653 68.267-109.227 110.933 68.267 110.933-68.267 68.267 109.227h1.707l129.707-13.653 15.36 129.707 122.88 42.667-42.667 122.88 90.453 92.16zM375.467 308.053h-39.253l-66.56 168.96v-168.96h-44.373v285.013h39.253l66.56-168.96v168.96h44.373v-285.013zM542.72 553.813h-75.093v-80.213h64.853v-40.96h-64.853v-83.627h75.093v-40.96h-119.467v285.013h119.467c0 0 0-39.253 0-39.253zM788.48 308.053h-46.080l-40.96 216.747-40.96-216.747h-46.080l-54.613 285.013h49.493l27.307-216.747 39.253 216.747h49.493l39.253-216.747 27.307 216.747h49.493l-52.907-285.013z" />
<glyph unicode="&#xe90e;" glyph-name="Price" d="M634.88 453.12c-23.893 0-42.667-18.773-42.667-42.667s18.773-42.667 42.667-42.667 42.667 18.773 42.667 42.667-18.773 42.667-42.667 42.667v0zM384 623.787c-23.893 0-42.667-18.773-42.667-42.667s18.773-42.667 42.667-42.667c23.893 0 42.667 18.773 42.667 42.667 1.707 23.893-18.773 42.667-42.667 42.667v0zM930.133 345.6c-5.12 15.36-20.48 25.6-37.547 25.6h-76.8v484.693c0 42.667-34.133 76.8-76.8 76.8h-460.8c-42.667 0-76.8-34.133-76.8-76.8v-486.4h-76.8c-17.067 0-30.72-10.24-37.547-25.6-5.12-15.36-1.707-32.427 10.24-44.373l360.107-319.147c29.013-25.6 73.387-25.6 102.4 0l360.107 319.147c11.947 13.653 17.067 30.72 10.24 46.080v0zM288.427 581.12c0 52.907 42.667 97.28 97.28 97.28s97.28-42.667 97.28-97.28c0-52.907-42.667-97.28-97.28-97.28s-97.28 42.667-97.28 97.28v0zM440.32 299.52c-5.12-8.533-13.653-15.36-23.893-15.36-3.413 0-8.533 1.707-11.947 3.413-13.653 6.827-18.773 23.893-11.947 37.547l186.027 366.933c6.827 13.653 22.187 18.773 35.84 11.947s18.773-23.893 11.947-35.84l-186.027-368.64zM634.88 313.173c-52.907 0-97.28 42.667-97.28 97.28s44.373 97.28 97.28 97.28 97.28-42.667 97.28-97.28c0-52.907-44.373-97.28-97.28-97.28v0z" />
<glyph unicode="&#xe90f;" glyph-name="Heart" d="M715.093 883.2c-80.213 0-153.6-35.84-204.8-93.867-51.2 58.027-124.587 93.867-204.8 93.867-153.6 0-279.893-131.413-279.893-291.84 0-42.667 6.827-85.333 20.48-124.587 0 0 11.947-35.84 22.187-56.32 117.76-252.587 442.027-418.133 442.027-418.133s324.267 163.84 442.027 418.133c0 0 15.36 34.133 22.187 56.32 11.947 39.253 20.48 81.92 20.48 124.587 0 160.427-126.293 291.84-279.893 291.84v0z" />
<glyph unicode="&#xe910;" glyph-name="NoAnimal" d="M353.28 576c73.387 0 133.12 80.213 133.12 177.493s-59.733 177.493-133.12 177.493c-73.387 0-133.12-80.213-133.12-177.493 0-98.987 59.733-177.493 133.12-177.493v0zM669.013 576c73.387 0 133.12 80.213 133.12 177.493s-59.733 177.493-133.12 177.493c-73.387 0-133.12-80.213-133.12-177.493 0-98.987 59.733-177.493 133.12-177.493v0zM914.773 664.747c-58.027 11.947-114.347-39.253-129.707-116.053s18.773-145.067 75.093-155.307c58.027-11.947 114.347 39.253 129.707 116.053 15.36 75.093-17.067 143.36-75.093 155.307v0zM158.72 393.387c58.027 11.947 90.453 80.213 75.093 155.307-15.36 76.8-71.68 126.293-129.707 116.053-56.32-11.947-88.747-80.213-73.387-157.013 13.653-75.093 71.68-126.293 128-114.347v0zM709.973 352.427c-15.36 95.573-98.987 170.667-199.68 170.667s-184.32-73.387-199.68-170.667c-71.68-30.72-121.173-102.4-121.173-186.027 0-110.933 90.453-203.093 203.093-203.093 44.373 0 85.333 13.653 119.467 39.253 34.133-23.893 75.093-39.253 119.467-39.253 110.933 0 203.093 90.453 203.093 203.093-3.413 83.627-52.907 155.307-124.587 186.027v0z" />
<glyph unicode="&#xe911;" glyph-name="Handmade" d="M904.533 861.013v54.613c0 11.947-10.24 22.187-22.187 22.187h-221.867c-11.947 0-22.187-10.24-22.187-22.187v-54.613c-40.96-5.12-71.68-39.253-71.68-81.92v-573.44h-261.12l11.947 131.413h13.653c35.84 0 69.973 13.653 95.573 39.253s39.253 59.733 39.253 95.573c0 71.68-56.32 129.707-126.293 134.827l13.653 163.84c69.973 3.413 126.293 59.733 126.293 131.413 0 11.947-10.24 22.187-22.187 22.187s-22.187-10.24-22.187-22.187c0-44.373-34.133-80.213-76.8-85.333v8.533c1.707 27.307-6.827 52.907-25.6 73.387s-44.373 30.72-71.68 30.72c-27.307 0-52.907-11.947-71.68-30.72-18.773-20.48-27.307-46.080-25.6-73.387v-8.533c-68.267-1.707-121.173-58.027-121.173-126.293 0-34.133 13.653-64.853 37.547-88.747s56.32-37.547 88.747-37.547h17.067l18.773-180.907h-11.947c-61.44 0-110.933-49.493-110.933-110.933 0-29.013 11.947-58.027 32.427-78.507s49.493-32.427 78.507-32.427h30.72l15.36-187.733c1.707-11.947 10.24-20.48 22.187-20.48s22.187 8.533 22.187 20.48l15.36 187.733h264.533v-22.187c0-42.667 30.72-76.8 71.68-81.92v-54.613c0-11.947 10.24-22.187 22.187-22.187h221.867c11.947 0 22.187 10.24 22.187 22.187v54.613c40.96 5.12 71.68 39.253 71.68 81.92v640c3.413 42.667-27.307 76.8-68.267 81.92zM262.827 238.080l-8.533 98.987h17.067l-8.533-98.987zM419.84 473.6c0-23.893-10.24-46.080-27.307-63.147s-39.253-27.307-63.147-27.307h-10.24l15.36 180.907c47.787-3.413 85.333-42.667 85.333-90.453zM172.373 608.427c-22.187 0-42.667 8.533-58.027 23.893s-23.893 35.84-23.893 58.027c0 44.373 35.84 80.213 80.213 81.92l13.653-162.133-11.947-1.707zM216.747 770.56h22.187v-32.427c0-11.947 10.24-22.187 22.187-22.187s22.187 10.24 22.187 22.187v95.573c0 11.947-10.24 22.187-22.187 22.187-11.947 1.707-22.187-8.533-22.187-22.187v-18.773h-27.307l-1.707 11.947c-1.707 13.653 3.413 29.013 13.653 39.253s23.893 17.067 37.547 17.067c13.653 0 27.307-5.12 37.547-17.067 10.24-10.24 15.36-23.893 13.653-39.253l-39.253-445.44h-25.6l-30.72 389.12zM192.853 205.653c-17.067 0-34.133 6.827-46.080 18.773s-18.773 29.013-18.773 46.080c0 35.84 29.013 64.853 64.853 64.853h15.36l11.947-131.413h-27.307zM931.84 205.653l-320.853-69.973c0 1.707 0 3.413 0 3.413v37.547l320.853 69.973v-40.96zM931.84 292.693l-320.853-69.973v40.96l320.853 69.973c0 0 0-40.96 0-40.96zM931.84 379.733l-320.853-69.973v40.96l320.853 69.973c0 0 0-40.96 0-40.96zM931.84 466.773l-322.56-69.973v40.96l320.853 69.973c1.707 0 1.707-40.96 1.707-40.96zM931.84 553.813l-320.853-69.973v40.96l320.853 69.973c0 1.707 0-40.96 0-40.96zM931.84 642.56l-320.853-69.973v40.96l320.853 69.973c0 0 0-40.96 0-40.96zM931.84 729.6l-320.853-69.973v40.96l320.853 69.973c0 0 0-40.96 0-40.96zM858.453 893.44v-30.72h-175.787v30.72h175.787zM646.827 816.64h247.467c6.827 0 11.947-1.707 17.067-5.12l-302.080-66.56v34.133c0 20.48 17.067 37.547 37.547 37.547zM682.667 24.747v30.72h177.493v-30.72h-177.493zM894.293 101.547h-223.573l261.12 58.027v-20.48c0-20.48-17.067-37.547-37.547-37.547z" />
<glyph unicode="&#xe912;" glyph-name="Health" d="M512 942.933c-273.067 0-494.933-221.867-494.933-494.933s221.867-494.933 494.933-494.933 494.933 221.867 494.933 494.933-221.867 494.933-494.933 494.933zM512 31.573c-228.693 0-416.427 187.733-416.427 416.427 0 230.4 187.733 416.427 416.427 416.427s416.427-186.027 416.427-416.427c0-228.693-186.027-416.427-416.427-416.427zM624.64 552.107v158.72c0 27.307-22.187 49.493-49.493 49.493h-107.52c-27.307 0-49.493-22.187-49.493-49.493v-158.72h-158.72c-27.307 0-49.493-22.187-49.493-49.493v-109.227c0-27.307 22.187-49.493 49.493-49.493h158.72v-158.72c0-27.307 22.187-49.493 49.493-49.493h107.52c27.307 0 49.493 22.187 49.493 49.493v158.72h158.72c27.307 0 49.493 22.187 49.493 49.493v109.227c0 27.307-22.187 49.493-49.493 49.493 0 0-158.72 0-158.72 0z" />
<glyph unicode="&#xe913;" glyph-name="Blog" d="M510.293 942.933c-273.067 0-493.227-221.867-493.227-494.933s221.867-494.933 494.933-494.933c273.067 0 494.933 221.867 494.933 494.933-1.707 273.067-221.867 494.933-496.64 494.933zM564.907 243.2l-278.187 278.187c-20.48 20.48-30.72 46.080-29.013 75.093s13.653 56.32 34.133 76.8c20.48 20.48 47.787 32.427 76.8 34.133s56.32-8.533 75.093-29.013l278.187-278.187 32.427-191.147-189.44 34.133zM419.84 674.987l-128-128c0 0 0 0 0 0-1.707 1.707-3.413 5.12-5.12 6.827s-1.707 3.413-3.413 5.12c-1.707 1.707-1.707 5.12-3.413 6.827-1.707 3.413-1.707 5.12-1.707 8.533 0 1.707-1.707 3.413-1.707 5.12 0 5.12-1.707 10.24-1.707 15.36 1.707 23.893 10.24 46.080 29.013 63.147 17.067 17.067 40.96 27.307 63.147 29.013 5.12 0 10.24 0 15.36-1.707 1.707 0 3.413 0 5.12-1.707 3.413 0 5.12-1.707 8.533-1.707 1.707 0 5.12-1.707 6.827-3.413 1.707 0 3.413-1.707 5.12-3.413 6.827 1.707 10.24 1.707 11.947 0 0 0 0 0 0 0zM645.12 451.413l-129.707-129.707-170.667 170.667 129.707 129.707 170.667-170.667zM460.8 635.733l-129.707-129.707-25.6 25.6 129.707 129.707 25.6-25.6zM660.48 436.053l-131.413-129.707 44.373-44.373 157.013-27.307-27.307 157.013-42.667 44.373zM677.547 289.28c-8.533-8.533-22.187-15.36-35.84-15.36s-25.6 5.12-35.84 15.36c-8.533 8.533-15.36 22.187-15.36 35.84s5.12 25.6 15.36 35.84c8.533 8.533 22.187 15.36 35.84 15.36s25.6-5.12 35.84-15.36c8.533-8.533 15.36-22.187 15.36-35.84-1.707-13.653-6.827-25.6-15.36-35.84zM663.893 345.6c5.12-5.12 8.533-13.653 8.533-20.48 0-8.533-3.413-15.36-8.533-20.48s-13.653-8.533-20.48-8.533c-8.533 0-15.36 3.413-20.48 8.533s-8.533 13.653-8.533 20.48c0 8.533 3.413 15.36 8.533 20.48s13.653 8.533 20.48 8.533c6.827 0 13.653-1.707 20.48-8.533v0z" />
<glyph unicode="&#xe914;" glyph-name="Sberbank" d="M855.040 806.4l-42.667 39.253-494.933-283.307-235.52 134.827-23.893-49.493 259.413-150.187zM925.013 724.48l-32.427 42.667-575.147-331.093-279.893 160.427-11.947-52.907 291.84-168.96zM761.173 878.080l-56.32 29.013-387.413-221.867-170.667 98.987-35.84-42.667 206.507-117.76zM979.627 610.133l-27.307 68.267-634.88-365.227-300.373 170.667v-32.427c0-66.56 13.653-131.413 39.253-192.853 23.893-59.733 59.733-112.64 105.813-158.72 47.787-46.080 98.987-80.213 157.013-104.107 61.44-27.307 126.293-40.96 192.853-40.96s131.413 13.653 192.853 40.96c59.733 23.893 112.64 59.733 158.72 104.107 46.080 46.080 80.213 98.987 105.813 158.72l11.947 32.427c17.067 51.2 27.307 105.813 27.307 160.427-1.707 54.613-10.24 107.52-29.013 158.72z" />
<glyph unicode="&#xe915;" glyph-name="Pochta" d="M977.408 942.933h-961.024v-989.525h990.549v989.525h-29.525zM947.712 13.141c-54.272 0-818.688 0-872.277 0 0 53.589 0 816.64 0 870.229 53.589 0 818.005 0 872.277 0 0-53.589 0-816.811 0-870.229zM316.587 622.933c7.339-16.555 19.797-33.28 52.395-55.467 7.339-4.949 15.36-15.36 9.216-30.208s-17.92-35.157-11.093-43.008c6.827-8.533 31.403-12.288 51.712-4.267 0 0 4.267-12.971 11.776-20.992 0 0-3.755-6.827-15.36-3.755 0 0 4.267-10.411-1.195-21.504 0 0-13.483 2.389-19.115 14.848 0 0-5.632-9.899-16.725-12.971 0 0-8.704 4.267-6.827 22.187 0 0-6.827-16.043-26.453-18.432 0 0-11.776 14.848 3.072 34.475 0 0-10.411-9.899-30.208-5.461 0 0-3.072 10.411 14.848 24.064 0 0-20.309 1.195-27.819 17.92 0 0 8.704 10.411 29.013 8.021 0 0-19.115 4.267-23.381 27.648 0 0 14.165 8.533 35.669-5.461 0 0-3.755 7.339-12.971 14.848-9.216 6.997-20.309 27.307-16.555 57.515v0zM397.312 390.315c-3.072 3.755-4.949 8.021-6.827 11.776 3.755-28.331 4.949-47.445 19.797-65.195 0 0 9.216 12.288 3.755 41.813-2.389 0.683-5.461 1.877-8.704 3.755 0 0 3.755-12.288 1.877-24.064 0-0.171-5.632 3.584-9.899 31.915v0zM371.371 393.387c-1.877 1.877-5.632 6.827-7.339 10.411-1.195-16.555-5.632-59.051 8.704-72.533 0 0 9.899 7.339 13.483 69.461-1.877-3.072-5.632-6.827-7.339-9.216 0 0 2.389-19.627-4.949-33.792 0 0-7.509 5.461-2.56 35.669v0zM336.896 360.789c12.288 14.165 16.043 57.173 16.043 57.173 1.195 1.195 3.072 2.389 4.949 3.755 0.683 0.683 1.195 1.195 1.877 1.877 0-1.195 0-3.072 0-4.949-1.877-25.771-3.755-52.907-11.776-65.877-8.021-13.483-22.869-20.309-22.869-20.309-13.483 24.576 3.072 57.173 16.725 80.043 1.877 0.683 3.755 1.877 5.632 2.389-5.12-17.237-14.336-38.059-10.581-54.101v0zM302.933 435.883c0-3.072 0-5.461 0.683-6.827 0 0 0.683-0.683 0.683-1.195-11.776-11.776-19.797-22.187-37.035-46.080-17.237-23.381-44.373-24.576-44.373-24.576 2.389 19.115 8.021 34.475 22.187 51.029 14.848 16.043 33.28 30.72 46.763 41.301 3.755-1.877 8.021-3.072 14.165-2.389 0 0 0.683 0.683 1.195 0.683-1.877-2.389-3.072-4.949-3.755-7.339-10.411-5.461-40.107-20.992-52.395-45.568 0.171-0.341 19.285 5.803 51.883 40.96v0zM281.429 459.264l1.195 2.389c0 0.683 0.683 1.195 1.195 1.877-11.093-4.267-51.2-19.627-63.488-25.771-12.971-6.827-31.403-22.187-41.984-52.224 0 0 27.136-2.389 49.323 15.36 21.504 18.432 47.445 43.691 58.539 52.224-1.195 0.683-1.877 1.877-2.389 2.389 0 0-30.208-26.453-61.611-37.547 0 0 6.827 12.288 19.115 20.992 15.36 11.093 26.453 14.165 40.107 20.309v0zM258.56 477.696c0.683 0.683 1.195 1.877 1.195 3.072-12.971-3.072-45.568-6.827-60.416-11.093-14.165-4.949-40.619-15.36-56.149-44.885 0 0 22.869-7.339 65.877 12.971 43.691 20.309 57.344 24.576 65.365 27.136-6.827 0.683-11.093 2.389-13.483 4.267-17.237-8.021-40.619-17.237-63.488-17.92 0 0 11.093 8.021 23.381 12.971 13.141 5.461 27.307 10.411 37.717 13.483v0zM259.755 499.2c4.267-2.389 7.339-3.072 12.971-3.755-3.072-1.877-5.632-4.267-8.704-8.021-14.848-4.267-41.301-9.216-83.797-12.288-43.179-3.072-65.877 4.949-65.877 4.949 14.848 9.216 38.912 18.432 54.784 21.504 16.043 3.072 58.539 3.072 76.971 5.461 0-0.683 2.389-2.389 6.144-4.267-15.36-1.877-48.64-3.072-65.877-11.776 0.171 0.171 31.573-4.096 73.387 8.192v0zM256.683 523.776c1.877 1.195 4.949 2.389 8.021 3.755-22.187 6.144-51.712 17.237-96.768 19.627-33.28 2.389-56.661 0.683-69.12-2.389 0 0 30.208-21.504 64.171-28.843 34.475-7.339 62.293-2.389 82.603-3.072 1.195 2.389 3.072 4.267 5.632 6.827-24.064 0-63.488 6.144-77.653 10.411 0-0.171 34.475 7.339 83.115-6.315v0zM256.683 549.035c0-0.683 2.389-12.971 16.725-19.627-30.891 13.483-90.624 21.504-123.221 34.475-43.861 18.432-51.883 41.131-51.883 41.131 38.229 0.683 68.437-8.533 92.501-15.36 27.136-8.533 69.632-24.576 84.48-30.72-5.632-0.683-11.776-1.877-16.725-5.461-20.992 8.021-30.208 11.093-49.323 16.555-14.848 4.267-25.259 4.949-34.475 5.461 0 0 12.971-8.704 34.475-15.36 20.992-6.827 30.208-7.339 47.445-11.093v0zM254.293 582.315c1.195-1.877 4.949-7.339 6.144-9.216-48.128 8.021-101.717 44.885-117.76 67.072-16.725 22.699-11.776 56.661-11.776 56.661 15.36-3.072 50.517-33.28 59.221-41.813 9.216-9.216 36.352-35.669 54.784-50.517l6.144-16.555c-16.043 12.971-35.157 27.136-47.445 36.352-8.704 6.827-22.869 16.555-36.352 20.992 0 0 12.971-16.043 22.869-24.064 11.776-9.216 23.381-17.237 33.28-22.699 8.704-4.608 12.971-7.68 30.891-16.213v0zM390.485 447.488c1.195 1.195 2.389 2.389 3.755 3.755 2.389-3.072 9.899-12.288 13.483-21.504 2.389-8.021 5.632-18.432 6.827-24.576 1.877-6.144 6.144-19.115 8.704-23.381 0 0-11.776-1.877-20.309 8.533-8.704 9.899-11.776 19.627-12.971 30.208-0.683 8.021-0.683 18.944 0.512 26.965v0zM372.053 445.611c1.877-2.389 4.267-3.755 4.267-3.755l1.877-1.195 1.195 0.683c1.877 0.683 3.072 1.195 4.267 1.877 1.877-4.949 2.389-7.339 3.072-11.093 0.683-5.461 1.195-14.165-0.683-20.992-2.389-8.533-7.339-13.483-10.411-16.555 0 0-7.339 8.704-9.899 15.36-2.389 7.339-3.072 16.043 0 24.576 1.365 4.437 3.755 8.704 6.315 11.093v0zM345.6 445.099c8.021 1.195 13.483 3.755 18.432 7.339 0.683-3.072 2.389-6.827 1.195-11.605-1.195-5.461-4.949-11.093-10.411-15.36-7.339-6.827-18.432-12.288-30.208-10.411 0-0.171-2.56 8.533 20.992 30.037v0zM336.213 459.776c1.195-8.021 4.949-12.971 4.949-12.971-2.389-3.755-12.288-20.309-33.28-17.92 0 0-5.632 11.776 8.704 20.992 9.216 6.315 13.483 7.509 19.627 9.899v0zM338.091 474.624c-5.632-1.877-12.288-2.389-21.504 0l-1.877 0.683-1.195 1.877c-10.411-8.533-22.869-9.899-27.136-17.92 0 0 4.949-9.899 19.115-8.021 13.483 1.877 24.064 8.021 31.403 17.237 0 1.877 0.683 4.267 1.195 6.144v0zM314.709 486.229c1.877 3.072 3.072 7.339 7.339 12.288-9.216 1.195-17.237 1.195-28.331-0.683-12.288-2.389-25.259-5.461-32.085-24.576 0 0 8.021-6.827 22.869-3.755 12.971 2.731 23.381 8.192 30.208 16.725v0zM309.077 507.221c-3.072 3.072-6.144 6.827-8.021 11.093l-1.195 2.389c-11.093 4.267-22.869 6.827-33.963 2.389-11.093-3.755-14.165-8.704-17.237-12.971 0 0 12.971-10.411 27.136-11.093 14.165 0.171 27.819 3.925 33.28 8.192v0zM312.149 529.92c1.877 0.683 4.267 1.195 6.827 1.877-4.949 4.267-9.899 11.093-12.288 20.309-4.949-0.683-17.237-1.195-22.187 1.195-5.632 1.877-16.043 1.877-24.064-3.072 0 0 3.072-14.165 21.504-19.115 16.725-4.779 23.552-3.584 30.208-1.195v0zM306.005 557.739l1.877 1.195c0.683 0.683 4.949 3.072 11.776 3.755-6.144 4.267-19.797 16.043-30.208 21.504-10.411 6.144-28.331 14.165-37.547 15.36 0 0 8.704-22.699 18.432-31.403 10.411-9.899 17.92-12.971 35.669-10.411v0zM324.608 568.149c-4.267 5.461-8.021 13.483-10.411 22.699-2.389 7.339-6.827 26.453-9.899 31.403-2.389 4.267-12.971 21.504-32.597 27.136 0 0-5.632-22.187 4.949-39.936 7.851-14.848 25.771-30.891 47.957-41.301v0zM434.347 465.408c2.389-2.389 4.267-4.267 8.704-6.144 0 0 6.827-12.288-1.195-26.453-7.339-14.848-14.165-29.525-17.237-38.229 0 0-3.755 0.683-8.704 23.381-3.072 15.36-6.827 19.627-11.093 24.576 4.267-1.877 8.021-3.072 8.704-3.072h3.072l1.195 2.389c2.389 5.461 3.755 10.411 3.755 14.677 0 1.195 0 2.389-0.683 3.755 7.339 0 11.093 3.072 12.288 4.949 0.683 0.683 0.683 0.683 0.683 0.683l0.512-0.512zM266.069 640.171c0-2.389 0-4.949 0-7.339v-5.461c-11.776 15.36-25.259 33.28-38.741 49.835-9.216 11.093-16.725 17.92-25.259 23.381 6.827-20.992 19.797-37.547 29.013-46.080 9.216-8.021 22.869-22.187 35.669-30.72l1.195-4.267c1.195-4.267 2.389-8.021 4.949-11.776 2.389-5.461 6.827-10.411 11.776-16.043-4.267 1.877-8.704 4.267-12.971 6.144l-3.755 1.195c-35.669 19.115-70.827 58.539-85.675 85.504-14.165 27.136-8.021 59.051-4.267 75.776 16.043-13.483 39.424-40.619 49.323-55.467 12.971-17.92 29.013-43.691 38.741-64v-0.683zM766.464 523.776c-2.389 1.195-4.949 2.389-8.021 3.755 21.504 6.144 51.712 17.237 96.768 19.627 32.597 2.389 56.661 0.683 69.12-2.389 0 0-30.208-21.504-64.683-28.843-33.963-7.339-62.293-2.389-82.603-3.072-1.195 2.389-2.389 4.267-4.949 6.827 24.064 0 63.488 6.144 77.653 10.411 0-0.171-34.475 7.339-83.285-6.315v0zM766.464 549.035c0-0.683-2.389-12.971-16.725-19.627 30.208 13.483 90.624 21.504 122.709 34.475 43.691 18.432 51.712 41.301 51.712 41.301-37.547 0.683-68.437-8.533-91.819-15.36-27.819-8.533-69.632-24.576-84.48-30.72 5.632-0.683 11.776-1.877 16.725-5.461 20.992 8.021 30.208 11.093 48.64 16.555 14.848 4.267 25.941 4.949 35.157 5.461 0 0-12.971-8.704-34.475-15.36-20.821-6.997-30.037-7.509-47.445-11.264v0zM769.024 582.315c-1.195-1.877-4.949-7.339-6.144-9.216 48.128 8.021 101.035 44.885 117.76 67.072 16.725 22.699 11.776 56.661 11.776 56.661-16.043-3.072-50.517-33.28-59.733-41.813-8.704-9.216-35.669-35.669-54.272-50.517l-6.144-16.555c16.043 12.971 35.157 27.136 46.763 36.352 9.216 6.827 22.869 16.555 36.352 20.992 0 0-12.288-16.043-22.187-24.064-11.776-9.216-24.064-17.237-33.28-22.699-8.704-4.608-13.653-7.68-30.891-16.213v0zM757.248 640.171c0-2.389 0-4.949 0-7.339l-0.683-5.461c11.776 15.36 25.941 33.28 39.424 49.835 9.216 11.093 16.725 17.92 25.259 23.381-7.339-20.992-20.309-37.547-29.525-46.080-9.216-8.021-22.187-22.187-35.157-30.72l-1.195-4.267c-1.195-4.267-2.389-8.021-4.949-11.776-3.072-5.461-6.827-10.411-11.776-16.043 3.755 1.877 8.021 4.267 12.288 6.144l4.267 1.195c35.669 19.115 70.827 58.539 84.992 85.504 14.848 27.136 8.704 59.051 4.949 75.776-16.043-13.483-39.424-40.619-50.005-55.467-12.288-17.92-28.331-43.691-38.229-64l0.341-0.683zM311.637 424.789c-14.848-14.848-45.568-47.445-43.179-83.627 0 0 29.013 9.216 40.619 30.208 12.288 21.504 19.797 34.475 24.576 39.424-3.755-0.683-6.827-0.683-9.899 0l-2.389 0.683c-7.339-13.483-21.504-35.157-35.157-43.008 0 0-3.072 17.92 35.157 53.589 0.683 1.195 1.195 3.072 2.389 4.949-3.755-1.195-7.339-1.877-11.776-1.877l-0.341-0.341zM706.048 622.933c-6.827-16.555-19.115-33.28-51.712-55.467-7.339-4.949-15.36-15.36-9.216-30.208s17.92-35.157 10.411-43.008c-6.827-8.533-31.403-12.288-51.2-4.267 0 0-4.267-12.971-11.776-20.992 0 0 3.755-6.827 14.848-3.755 0 0-4.267-10.411 1.877-21.504 0 0 13.483 2.389 19.115 14.848 0 0 5.632-9.899 16.043-12.971 0 0 9.216 4.267 7.339 22.187 0 0 6.144-16.043 26.453-18.432 0 0 11.776 14.848-3.755 34.475 0 0 11.093-9.899 30.891-5.461 0 0 3.072 10.411-14.848 24.064 0 0 19.797 1.195 27.819 17.92 0 0-8.704 10.411-29.525 8.021 0 0 19.797 4.267 24.064 27.648 0 0-14.165 8.533-36.352-5.461 0 0 4.267 7.339 13.483 14.848 9.387 6.997 20.48 27.307 16.043 57.515v0zM625.323 390.315c3.072 3.755 5.632 8.021 6.827 11.776-3.072-28.331-4.267-47.445-19.797-65.195 0 0-9.216 12.288-3.072 41.813 2.389 0.683 5.632 1.877 8.021 3.755 0 0-3.072-12.288-1.195-24.064 0-0.171 5.632 3.584 9.216 31.915v0zM651.947 393.387c1.877 1.877 5.632 6.827 7.339 10.411 1.195-16.555 5.632-59.051-9.216-72.533 0 0-9.899 7.339-12.971 69.461 1.877-3.072 5.632-6.827 7.339-9.216 0 0-2.389-19.627 4.949-33.792 0 0 6.827 5.461 2.56 35.669v0zM686.421 360.789c-12.288 14.165-16.043 57.173-16.043 57.173-1.877 1.195-3.072 2.389-4.949 3.755-0.683 0.683-1.195 1.195-1.877 1.877 0-1.195 0-3.072-0.683-4.949 1.877-25.771 4.267-52.907 12.288-65.877 8.021-13.483 22.187-20.309 22.187-20.309 14.165 24.576-2.389 57.173-16.725 80.043-1.877 0.683-3.072 1.877-4.949 2.389 5.12-17.237 14.507-38.059 10.752-54.101v0zM720.384 435.883c0-3.072-0.683-5.461-0.683-6.827-0.683 0-0.683-0.683-0.683-1.195 11.093-11.776 19.797-22.187 37.035-46.080 17.237-23.381 43.691-24.576 43.691-24.576-2.389 19.115-7.339 34.475-22.187 51.029-14.165 16.043-32.597 30.72-46.251 41.301-3.755-1.877-8.021-3.072-14.165-2.389-0.683 0-0.683 0.683-1.195 0.683 1.877-2.389 3.072-4.949 3.755-7.339 9.899-5.461 40.107-20.992 52.395-45.568 0-0.341-19.115 5.803-51.712 40.96v0zM741.888 459.264l-1.195 2.389c-0.683 0.683-0.683 1.195-1.195 1.877 11.093-4.267 50.517-19.627 63.488-25.771 12.971-6.827 31.403-22.187 41.301-52.224 0 0-26.453-2.389-48.64 15.36-22.187 18.432-47.445 43.691-58.539 52.224 1.195 0.683 1.877 1.877 2.389 2.389 0 0 29.525-26.453 61.611-37.547 0 0-6.827 12.288-19.797 20.992-14.848 11.093-26.453 14.165-39.424 20.309v0zM764.075 477.696c0 0.683-0.683 1.877-1.195 3.072 13.483-3.072 46.251-6.827 60.416-11.093 14.848-4.949 41.301-15.36 56.661-44.885 0 0-22.869-7.339-66.56 12.971-43.179 20.309-56.661 24.576-64.683 27.136 6.144 0.683 11.093 2.389 13.483 4.267 17.237-8.021 40.107-17.237 63.488-17.92 0 0-11.776 8.021-23.381 12.971-12.971 5.461-27.136 10.411-38.229 13.483v0zM763.392 499.2c-4.267-2.389-8.021-3.072-12.971-3.755 2.389-1.877 5.632-4.267 8.021-8.021 15.36-4.267 41.301-9.216 84.48-12.288s65.877 4.949 65.877 4.949c-14.848 9.216-38.912 18.432-54.784 21.504-16.043 3.072-58.539 3.072-76.971 5.461-0.683-0.683-2.389-2.389-6.144-4.267 15.36-1.877 48.64-3.072 66.048-11.776-0.171 0.171-31.573-4.096-73.557 8.192v0zM632.832 447.488c-1.877 1.195-3.072 2.389-3.755 3.755-2.389-3.072-9.899-12.288-13.483-21.504-3.072-8.021-5.632-18.432-7.339-24.576-1.195-6.144-5.632-19.115-8.704-23.381 0 0 11.776-1.877 20.992 8.533 8.021 9.899 11.093 19.627 12.288 30.208 1.195 8.021 1.195 18.944 0 26.965v0zM651.264 445.611c-2.389-2.389-4.267-3.755-4.267-3.755l-1.877-1.195-1.877 0.683c-1.195 0.683-2.389 1.195-3.755 1.877-1.877-4.949-2.389-7.339-3.072-11.093-0.683-5.461-1.877-14.165 0.683-20.992 2.389-8.533 7.339-13.483 9.899-16.555 0 0 8.021 8.704 9.899 15.36 2.389 7.339 3.755 16.043 0.683 24.576-2.048 4.437-4.437 8.704-6.315 11.093v0zM677.717 445.099c-8.021 1.195-14.165 3.755-18.432 7.339-0.683-3.072-2.389-6.827-1.195-11.605 1.195-5.461 4.949-11.093 9.899-15.36 8.021-6.827 18.432-12.288 30.208-10.411-0.171-0.171 3.072 8.533-20.48 30.037v0zM686.421 459.776c-0.683-8.021-4.267-12.971-4.949-12.971 3.072-3.755 12.971-20.309 33.28-17.92 0 0 5.632 11.776-8.021 20.992-9.216 6.315-13.483 7.509-20.309 9.899v0zM684.544 474.624c5.632-1.877 12.971-2.389 21.504 0l2.389 0.683 0.683 1.877c10.411-8.533 23.381-9.899 27.819-17.92 0 0-5.632-9.899-19.115-8.021s-24.064 8.021-31.403 17.237c-0.683 1.877-1.195 4.267-1.877 6.144v0zM708.608 486.229c-1.877 3.072-3.072 7.339-7.339 12.288 9.216 1.195 17.237 1.195 27.819-0.683 12.971-2.389 25.941-5.461 32.597-24.576 0 0-8.704-6.827-23.381-3.755-12.459 2.731-23.552 8.192-29.696 16.725v0zM714.069 507.221c3.072 3.072 6.144 6.827 8.021 11.093l1.195 2.389c11.093 4.267 22.187 6.827 33.963 2.389 11.093-3.755 14.165-8.704 16.725-12.971 0 0-12.288-10.411-26.453-11.093-14.336 0.171-27.819 3.925-33.451 8.192v0zM710.485 529.92c-1.877 0.683-3.755 1.195-6.144 1.877 4.949 4.267 9.899 11.093 11.776 20.309 5.632-0.683 17.237-1.195 22.869 1.195 4.949 1.877 15.36 1.877 23.381-3.072 0 0-2.389-14.165-20.992-19.115-17.408-4.779-23.552-3.584-30.891-1.195v0zM717.141 557.739l-2.389 1.195c0 0.683-4.267 3.072-11.093 3.755 5.632 4.267 19.797 16.043 29.525 21.504 11.093 6.144 29.013 14.165 38.229 15.36 0 0-8.704-22.699-18.432-31.403-10.411-9.899-17.92-12.971-35.84-10.411v0zM698.709 568.149c4.267 5.461 8.021 13.483 10.411 22.699 1.877 7.339 6.827 26.453 9.899 31.403 2.389 4.267 12.971 21.504 32.597 27.136 0 0 4.949-22.187-4.949-39.936-8.533-14.848-25.771-30.891-47.957-41.301v0zM588.971 465.408c-3.072-2.389-4.949-4.267-9.216-6.144 0 0-6.144-12.288 1.195-26.453 8.021-14.848 14.165-29.525 17.237-38.229 0 0 4.267 0.683 8.704 23.381 3.755 15.36 7.339 19.627 11.776 24.576-4.949-1.877-8.704-3.072-8.704-3.072h-3.072l-1.195 2.389c-3.072 5.461-3.755 10.411-3.755 14.677 0 1.195 0 2.389 0 3.755-6.827 0-10.411 3.072-12.288 4.949 0 0.683 0 0.683 0 0.683l-0.683-0.512zM711.68 424.789c14.848-14.848 45.568-47.445 42.496-83.627 0 0-29.013 9.216-40.619 30.208-11.776 21.504-19.115 34.475-24.064 39.424 3.072-0.683 6.144-0.683 9.899 0l2.389 0.683c7.339-13.483 21.504-35.157 34.475-43.008 0 0 3.755 17.92-35.157 53.589 0 1.195-1.195 3.072-1.877 4.949 3.072-1.195 7.339-1.877 11.776-1.877l0.683-0.341zM489.131 709.632c0 2.389 9.899 4.949 22.187 4.949s22.869-2.389 22.869-4.949c0-2.389-10.411-4.949-22.869-4.949-12.288 0.171-22.187 2.56-22.187 4.949v0zM412.672 683.861c0 1.877 6.144 2.389 14.165 2.389s14.848-0.683 14.848-2.389c0-1.195-6.827-2.389-14.848-2.389s-14.165 1.195-14.165 2.389v0zM515.584 699.221c0-2.389-1.877-4.267-4.267-4.267s-4.267 1.877-4.267 4.267c0 2.389 1.877 4.267 4.267 4.267 2.56 0 4.267-1.707 4.267-4.267v0zM487.253 714.581c-7.339 17.92-12.288 30.72-12.288 35.157 0 3.072 3.755 4.949 6.144 5.461 3.072 1.195 6.144 1.195 8.021 0 3.755-3.072 7.339-27.136 8.704-37.547-3.755-0.512-6.144-1.195-10.581-3.072v0zM500.907 718.336c1.877 0 4.267 0.683 6.144 0.683-1.195 9.216-4.267 25.259-6.827 31.403-1.877 6.144-4.267 11.093-8.704 12.288 0 0 3.755-9.216 4.949-17.92 1.877-9.216 3.755-17.92 4.437-26.453v0zM477.355 686.251c8.021 1.877 16.725 11.093 16.725 11.093-13.483-1.877-16.725-11.093-16.725-11.093v0zM489.813 687.616c-11.776-6.827-24.576-6.144-24.576-6.144 2.389 4.949 4.949 9.216 12.288 14.165s19.115 6.144 23.381 5.461c-1.365-3.072-5.632-10.411-11.093-13.483v0zM446.635 668.501v0.683c-11.093-1.195-24.576-0.683-24.576-0.683 0.683-4.267 2.389-7.339 5.632-9.216 0.341 9.216 18.944 9.216 18.944 9.216v0 0zM409.088 680.789c0 0 14.848-5.461 29.013-4.949 14.165 0.683 40.619 1.195 49.323 4.949 0 0-1.877-4.949-8.704-8.021 0 0 3.755 0 7.339-3.072 0 0-2.389-4.949-8.021-6.827 0 0 10.411-11.776 22.187-10.411 0 0-5.632-6.827-17.237-4.267-11.776 2.389-15.36 9.216-17.92 11.776 0 0 1.877-6.144 1.195-8.533 0 0-5.632 0-9.899 4.949 0 0 3.072-4.949 3.755-9.216 0 0-3.072-0.683-9.216 3.072 0 0 1.195-3.072 1.877-6.827 0 0-14.165 4.267-20.992 10.411 0 0 0-4.267 0.683-6.827 0 0-21.675 2.389-23.381 33.792v0zM405.845 678.229c0.683-6.827 2.389-13.483 4.949-18.432 0 0-8.704 6.827-10.411 11.776-2.389 5.461-3.072 9.216 5.461 6.656v0zM389.291 652.459c1.877 0 3.072 1.877 3.072 3.755s-1.195 3.755-3.072 3.755c-2.389 0-3.755-1.877-3.755-3.755s1.365-3.755 3.755-3.755v0zM409.6 656.725c5.632-2.389 10.411-8.704 10.411-8.704-8.021-1.877-12.288-4.267-12.288-4.267-16.043 11.093-29.525 0-29.525 0-8.704 4.949-10.411 17.237-6.144 23.381 4.267 6.827 14.165 5.461 19.115 4.267 3.072-9.045 13.483-12.117 18.432-14.677v0zM421.888 645.632c0 0 6.144-7.339 10.411-11.093 0 0-22.187 0-27.819-19.115 0 0-7.339 11.776-1.877 19.627 6.485 8.192 11.947 9.387 19.285 10.581v0zM446.635 641.365c0 0 6.827-2.389 9.216-3.072 0 0 0 4.267 0 6.144 1.877-0.683 4.949-1.195 6.827-1.195 0 0 7.339-16.043 12.971-22.187 0 0 0-3.755-3.072-9.216 0 0-3.755 9.899-11.093 17.237-3.755 4.267-6.827 6.144-14.848 12.288v0zM427.52 644.437c2.389-0.683 13.483-4.267 19.115-8.021 7.339-4.949 11.776-10.411 11.093-20.309 0 0-5.632 7.339-11.776 11.093-4.949 3.072-13.483 10.411-18.432 17.237v0zM428.032 716.459c1.877 0 6.144-1.195 6.144-4.949 0-3.072-5.632-11.093-6.827-14.848h-0.683c-1.195 3.755-6.144 11.776-6.144 14.848 0 3.755 3.755 4.949 6.144 4.949h1.365zM423.253 690.005c-1.195 4.949-3.072 17.237-5.632 19.627-3.072 2.389-7.339 3.072-9.216 2.389-1.877 0-4.267-1.877-3.072-4.949 0.683-2.389 9.899-16.043 11.093-17.92 1.877 0.171 1.877 0.171 6.827 0.853v0zM431.275 690.005c1.195 4.949 3.072 17.237 6.144 19.627 2.389 2.389 6.827 3.072 8.704 2.389 1.877 0 4.267-1.877 3.755-4.949-1.195-2.389-10.411-16.043-11.776-17.92-2.048 0.171-1.365 0.171-6.827 0.853v0zM437.419 732.501h-7.339v8.021h-5.461v-8.021h-7.339v-4.949h7.339v-9.216h5.461v9.216h7.339v4.949zM351.061 681.984c0 1.877 0 3.072 0 4.949 0.683 3.755 0.683 6.827 0.683 9.216-5.632-1.877-8.704-3.072-16.043-14.165 0 0 11.093 6.827 15.36 0v0zM360.96 664.235c0 3.072 1.877 11.776 4.267 17.92 2.389 8.021 1.195 19.115-2.389 25.771-3.072 6.827-4.949 12.971-4.267 19.627 0 0-6.827-2.389-10.411-4.949-0.683-8.021 3.755-15.36 6.144-20.309s1.877-12.288 1.195-16.043c-0.683-7.339 0.512-14.677 5.461-22.016v0zM361.472 724.48c0 0.683 0 3.072 0 4.267 0 0 10.411 9.899 19.797 11.776 5.461 1.195 8.704-1.195 10.411-2.389 0 0-3.072 0-8.021-3.755-4.267-3.755-10.411-8.021-14.848-9.216-4.267-1.365-5.461-1.365-7.339-0.683v0zM392.363 737.451c4.267-4.267 7.339-8.533 7.339-11.776 0-4.267-4.267-13.483-6.827-17.237-2.389-3.072-5.632-8.021-4.949-13.483 0-3.072 1.877-6.144 4.267-8.533 0 0-12.971 3.072-14.165 11.093-1.877 7.339 1.195 12.288 3.755 16.043 1.877 3.755 7.339 12.288 9.216 16.043 1.365 2.901 2.048 5.973 1.365 7.851v0zM467.627 648.192c2.389-9.216 6.827-17.92 11.093-24.576 3.755-6.144 6.144-16.043 6.144-19.115 0 0 5.632 12.971 2.389 21.504-1.877 7.339-8.021 17.92-19.627 22.187v0zM481.792 645.12c0 0 9.216 0 12.971-3.072 5.632-3.072 10.411-11.093 12.288-20.309 0 0-8.704 1.877-12.971 6.144s-9.899 11.093-12.288 17.237v0zM436.053 629.077c-1.195 0-6.144-1.195-8.021-1.877 0 0 7.339-1.877 11.093-4.949 3.072-3.072 6.144-6.827 7.339-13.483 1.877-9.899 7.339-20.309 9.216-23.381h0.683c-1.195 6.827 3.072 20.309 3.755 22.187 0 0-5.632 4.267-8.704 8.021-1.707 2.389-5.461 7.339-15.36 13.483v0zM475.648 608.768c1.877-4.949 8.021-14.165 4.949-23.381-2.389-9.216-8.704-13.483-12.288-20.992 0 0-3.072 14.165-2.389 25.259 0.341 10.581 4.779 14.848 9.728 19.115v0zM492.203 608.085c0 0 8.704-16.555 10.411-23.381 1.195-6.827 0-11.093-3.072-15.36-3.072-3.755-8.021-8.021-12.288-16.555 0 0-5.632 7.339-6.144 11.093-0.683 3.755 0.683 12.971 1.195 16.555 1.365 3.755 6.144 15.36 9.899 27.648v0zM496.469 553.984c-1.877-1.877-11.776-14.165-12.971-17.92-1.877-3.755-4.267-10.411-0.683-14.848 3.072-4.949 10.411-12.288 16.725-15.36 0 0-6.827 10.411-6.144 19.627 0.683 5.461 4.949 10.411 5.632 13.483 0.512 3.925 0.512 9.557-2.56 15.019v0zM476.843 560.811c1.877-1.877 4.267-7.339 4.949-12.288 0-4.949-0.683-9.216-3.755-16.555-3.072-9.216-8.704-19.627-11.093-24.576 0 0-4.949 6.827-7.339 12.971 0 0 7.339 10.411 10.411 17.92 3.755 7.68 5.632 15.701 6.827 22.528v0zM473.088 565.077c0 0-3.072-24.576-17.237-42.496-9.899-11.776-17.237-16.043-22.869-16.043-7.339 0-15.36 6.144-17.92 13.483-3.072 8.021-1.877 19.115 3.072 23.381 0 0 4.949-14.848 14.848-14.848 11.093-0.341 25.941 11.947 40.107 36.523v0zM461.483 574.976c1.195-4.267 1.877-11.093 0-17.237-1.195-4.949-3.755-11.093-9.216-14.165-4.949-3.072-16.043-3.755-20.309 6.827-0.171-0.171 20.139-1.365 29.525 24.576v0zM495.275 477.696c3.072-7.339 12.971-16.555 12.971-22.187 0-14.848-6.827-24.064-8.021-28.843 0 0-12.288 9.216-14.165 20.309-1.195 5.461 0 22.699 9.216 30.72v0zM482.304 467.285c1.195 3.755 5.632 14.165 10.411 17.92 0 0 6.827 19.627-14.165 31.403 0 0-8.704-11.776-11.093-22.187-2.389-11.264 9.387-17.408 14.848-27.136v0zM455.851 515.925c-3.755-4.267-8.021-9.899-12.288-11.776 0 0-1.195-8.533 0-14.165 0.683-8.533 6.144-17.237 8.704-23.381 0 0 9.216 11.605 10.411 19.115 0.683 6.827 0.683 12.971 1.195 16.043 0 0-5.461 8.533-8.021 14.165v0zM431.275 474.624c-2.389 3.755-11.093 18.432-11.093 28.843 0 0 10.411-5.461 19.115-1.195 0 0 1.195-14.165-0.683-18.432-1.195-3.755-3.072-6.144-7.339-9.216v0zM433.664 471.552c1.877 1.195 6.144 5.461 7.339 7.339 0 0 7.339-12.971 8.704-16.555 0 0-3.755-0.683-7.339 1.877-3.755 3.072-4.949 3.584-8.704 7.339v0zM465.749 478.891c-0.683-3.072-11.776-18.432-14.165-20.309 0 0 1.195-5.461 5.461-14.165 3.755-8.021 9.899-13.483 12.971-16.043 0 0 6.827 11.605 8.704 17.237 2.389 5.461 1.877 11.605 1.195 14.165-2.56 4.949-10.581 12.459-14.165 19.115v0zM482.304 438.272c2.389-4.949 9.899-12.971 11.093-19.627 1.195-4.949 0-8.533-1.195-12.288s-5.632-10.411-8.704-15.36c0 0-10.411 9.216-12.288 16.043-1.877 5.461-1.195 12.971 1.195 17.237 2.56 4.267 7.509 9.728 9.899 13.995v0zM453.461 440.149c3.072-6.144 9.216-11.605 10.411-16.555 1.877-6.144 2.389-9.899-0.683-16.555-2.389-6.144-5.632-9.899-6.827-13.483 0 0-8.021 10.411-9.216 15.36-1.195 4.267-1.877 11.776 0 16.043 1.365 4.779 4.437 10.923 6.315 15.189v0zM494.080 398.848c0 0-14.165-16.555-13.483-25.771 0.683-11.776 8.021-19.115 9.216-25.771 0 0 7.339 8.704 9.899 14.165 3.072 6.144 5.632 11.776 4.949 19.115-0.683 6.656-2.56 11.605-10.581 18.261v0zM468.139 400.725c2.389-3.072 8.704-14.165 6.827-20.992s-8.704-16.043-11.093-20.309c0 0-5.461 11.776-6.827 16.555-1.195 5.632 0 14.336 11.093 24.747v0zM610.645 683.861c0 1.877-6.827 2.389-14.848 2.389s-14.165-0.683-14.165-2.389c0-1.195 6.144-2.389 14.165-2.389s14.848 1.195 14.848 2.389v0zM512 728.235c0.683 6.827 8.021 20.309 8.021 26.453 0 4.949-3.755 8.704-8.704 8.704-4.267 0-8.704-3.755-8.704-8.704 0-6.144 8.021-19.627 8.704-26.453h0.683zM535.381 714.581c8.021 17.92 12.971 30.72 12.288 35.157 0 3.072-3.072 4.949-6.144 5.461-3.072 1.195-5.632 1.195-7.339 0-4.267-3.072-7.339-27.136-9.216-37.547 4.267-0.512 6.144-1.195 10.411-3.072v0zM521.899 718.336c-1.877 0-3.755 0.683-5.632 0.683 1.195 9.216 4.267 25.259 6.144 31.403s4.267 11.093 8.704 12.288c0 0-3.072-9.216-4.949-17.92-1.877-9.216-3.072-17.92-4.267-26.453v0zM529.237 697.344c0 0 8.021-9.216 16.725-11.093-0.171 0-3.755 9.216-16.725 11.093v0zM521.899 701.099c4.949 0.683 16.555-0.683 24.064-5.461 6.827-4.949 9.216-9.216 11.776-14.165 0 0-12.971-0.683-24.064 6.144-5.632 3.072-10.581 10.411-11.776 13.483v0zM595.797 659.285c2.389 1.877 4.267 4.949 4.949 9.216 0 0-12.971-0.683-24.576 0.683v-0.683c-0.171 0 18.432 0 19.627-9.216v0zM590.848 646.997c0 2.389 0 6.827 0 6.827-6.827-6.144-20.309-10.411-20.309-10.411 0 3.755 1.195 6.827 1.195 6.827-5.632-3.755-9.216-3.072-9.216-3.072 0.683 4.267 3.755 9.216 3.755 9.216-3.755-4.949-9.216-4.949-9.216-4.949-0.683 2.389 0.683 8.533 0.683 8.533-1.877-2.389-5.632-9.216-17.237-11.776-12.288-2.389-17.92 4.267-17.92 4.267 11.776-1.195 22.869 10.411 22.869 10.411-6.144 1.877-8.021 6.827-8.021 6.827 3.755 3.072 6.827 3.072 6.827 3.072-6.827 3.072-8.021 8.021-8.021 8.021 8.704-3.755 35.157-4.267 49.323-4.949s28.331 4.949 28.331 4.949c-1.536-31.403-23.040-33.792-23.040-33.792v0zM617.301 678.229c-0.683-6.827-2.389-13.483-4.949-18.432 0 0 8.704 6.827 10.411 11.776 2.048 5.461 2.56 9.216-5.461 6.656v0zM637.781 656.213c0 1.877-1.877 3.755-3.755 3.755s-3.755-1.877-3.755-3.755c0-1.877 1.877-3.755 3.755-3.755s3.755 1.877 3.755 3.755v0zM632.149 671.573c4.267 1.195 14.848 2.389 19.115-4.267 4.267-6.144 2.389-18.432-6.144-23.381 0 0-13.483 11.093-30.208 0 0 0-3.755 2.389-12.288 4.267 0 0 4.949 6.144 11.093 8.704 4.949 2.389 15.36 5.461 18.432 14.677v0zM600.747 645.632c0 0-5.632-7.339-9.899-11.093 0 0 21.504 0 27.136-19.115 0 0 8.021 11.776 2.389 19.627-6.144 8.192-11.605 9.387-19.627 10.581v0zM576.683 641.365c0 0-7.339-2.389-9.216-3.072 0 0-0.683 4.267 0 6.144-2.389-0.683-4.949-1.195-7.339-1.195 0 0-6.827-16.043-12.288-22.187 0 0-0.683-3.755 2.389-9.216 0 0 4.267 9.899 11.093 17.237 4.267 4.267 6.656 6.144 15.36 12.288v0zM595.115 644.437c-1.877-0.683-13.483-4.267-19.115-8.021-6.827-4.949-11.776-10.411-10.411-20.309 0 0 5.632 7.339 11.776 11.093 4.779 3.072 13.483 10.411 17.749 17.237v0zM595.115 716.459c-1.877 0-6.144-1.195-6.144-4.949 0-3.072 5.632-11.093 6.827-14.848v0c1.195 3.755 6.827 11.776 6.827 14.848 0 3.755-4.267 4.949-6.144 4.949h-1.365zM600.064 690.005c0.683 4.949 2.389 17.237 5.632 19.627 3.072 2.389 6.827 3.072 9.216 2.389 1.877 0 3.755-1.877 3.072-4.949-0.683-2.389-9.899-16.043-11.093-17.92-2.56 0.171-1.877 0.171-6.827 0.853v0zM591.531 690.005c-0.683 4.949-2.389 17.237-5.632 19.627-2.389 2.389-6.827 3.072-8.704 2.389-2.389 0-4.267-1.877-3.755-4.949 0.683-2.389 9.899-16.043 11.093-17.92 2.56 0.171 2.048 0.171 6.997 0.853v0zM585.899 732.501h7.339v8.021h5.632v-8.021h6.827v-4.949h-6.827v-9.216h-5.632v9.216h-7.339v4.949zM500.224 779.264h7.339v8.021h5.632v-8.021h7.339v-4.949h-7.339v-9.216h-5.632v9.216h-7.339v4.949zM672.256 681.984c0 1.877 0 3.072-0.683 4.949-0.683 3.755-0.683 6.827 0 9.216 4.949-1.877 8.704-3.072 15.36-14.165 0 0-10.923 6.827-14.677 0v0zM662.357 664.235c0 3.072-1.877 11.776-4.267 17.92-3.072 8.021-1.195 19.115 1.877 25.771 3.755 6.827 5.632 12.971 4.949 19.627 0 0 6.827-2.389 10.411-4.949 0.683-8.021-4.267-15.36-6.144-20.309-2.389-4.949-1.877-12.288-1.195-16.043 0.512-7.339-0.683-14.677-5.632-22.016v0zM661.675 724.48c0 0.683 0 3.072-0.683 4.267 0 0-10.411 9.899-19.115 11.776-5.632 1.195-9.216-1.195-10.411-2.389 0 0 3.072 0 7.339-3.755 4.949-3.755 10.411-8.021 15.36-9.216 4.437-1.365 5.12-1.365 7.509-0.683v0zM630.272 737.451c-3.755-4.267-6.827-8.533-6.827-11.776 0-4.267 4.267-13.483 6.827-17.237 1.877-3.072 5.632-8.021 4.949-13.483 0-3.072-2.389-6.144-4.267-8.533 0 0 12.288 3.072 14.165 11.093 1.195 7.339-1.877 12.288-3.755 16.043s-8.021 12.288-9.216 16.043c-1.195 2.901-1.877 5.973-1.877 7.851v0zM555.691 648.192c-2.389-9.216-7.339-17.92-11.776-24.576-3.755-6.144-6.144-16.043-5.632-19.115 0 0-6.144 12.971-3.072 21.504 2.56 7.339 8.875 17.92 20.48 22.187v0zM540.843 645.12c0 0-8.704 0-12.971-3.072-4.949-3.072-9.899-11.093-12.288-20.309 0 0 9.216 1.877 13.483 6.144 4.437 4.267 10.069 11.093 11.776 17.237v0zM586.581 629.077c1.877 0 6.144-1.195 8.704-1.877 0 0-7.339-1.877-11.093-4.949s-6.144-6.827-7.339-13.483c-1.877-9.899-7.339-20.309-9.216-23.381h-0.683c1.195 6.827-3.072 20.309-4.267 22.187 0 0 6.144 4.267 8.704 8.021 1.536 2.389 5.291 7.339 15.189 13.483v0zM547.669 608.768c-2.389-4.949-8.021-14.165-5.461-23.381 3.072-9.216 9.216-13.483 12.971-20.992 0 0 2.389 14.165 1.877 25.259-0.683 10.581-4.437 14.848-9.387 19.115v0zM512 582.997c0 4.949 12.971 18.432 12.288 25.259-0.683 7.339-10.411 12.288-12.971 12.971v0c-2.389-0.683-11.776-5.461-12.288-12.971-0.683-6.827 11.776-20.309 12.288-25.259h0.683zM530.432 608.085c0 0-8.704-16.555-9.899-23.381-1.877-6.827-0.683-11.093 2.389-15.36 3.072-3.755 8.021-8.021 12.971-16.555 0 0 5.632 7.339 6.144 11.093 0.683 3.755-0.683 12.971-1.877 16.555-1.024 3.755-5.461 15.36-9.728 27.648v0zM511.317 542.891c4.267 3.072 8.021 8.021 9.216 11.093 0.683 3.072 1.195 8.021-1.195 11.093-3.755 4.267-7.339 8.533-8.021 12.288v0c0-3.755-4.267-8.021-7.339-12.288-2.389-3.072-2.389-8.021-1.195-11.093 1.195-2.389 4.779-8.021 8.533-11.093v0zM526.165 553.984c1.877-1.877 12.288-14.165 13.483-17.92s3.755-10.411 0.683-14.848c-3.072-4.949-10.411-12.288-16.725-15.36 0 0 6.827 10.411 6.144 19.627-0.683 5.461-4.949 10.411-5.632 13.483-1.024 3.925-0.512 9.557 2.048 15.019v0zM546.475 560.811c-1.877-1.877-4.267-7.339-4.949-12.288s0.683-9.216 3.072-16.555c3.755-9.216 9.216-19.627 11.776-24.576 0 0 4.949 6.827 7.339 12.971 0 0-7.339 10.411-10.411 17.92-3.755 7.68-5.632 15.701-6.827 22.528v0zM549.547 565.077c0 0 3.755-24.576 17.92-42.496 9.216-11.776 17.237-16.043 22.187-16.043 8.021 0 16.043 6.144 18.432 13.483 2.389 8.021 1.877 19.115-3.072 23.381 0 0-4.949-14.848-14.848-14.848-11.093-0.341-25.771 11.947-40.619 36.523v0zM561.323 574.976c-1.195-4.267-1.195-11.093 0-17.237 1.195-4.949 4.267-11.093 9.899-14.165 4.949-3.072 16.043-3.755 20.309 6.827 0-0.171-20.992-1.365-30.208 24.576v0zM511.317 503.467c3.072 1.195 5.632 2.389 9.216 7.339 2.389 4.267 4.949 11.776 3.755 16.555-1.877 6.827-5.632 9.216-7.339 13.483-1.877-1.877-3.072-3.072-5.632-4.267v0c-1.877 1.195-3.072 2.389-4.949 4.267-1.877-4.267-5.632-6.827-7.339-13.483-1.195-4.949 1.195-12.288 3.755-16.555 3.584-4.779 6.144-5.973 8.533-7.339v0zM511.317 462.848c1.877 6.144 14.848 18.432 13.483 25.259-1.877 9.899-8.021 8.021-13.483 12.288v0c-4.949-4.267-11.776-2.389-13.483-12.288-1.365-6.656 12.288-19.115 13.483-25.259v0zM527.36 477.696c-2.389-7.339-12.971-16.555-12.971-22.187 0.683-14.848 6.827-24.064 8.704-28.843 0 0 11.776 9.216 14.165 20.309 1.195 5.461 0 22.699-9.899 30.72v0zM540.843 467.285c-1.195 3.755-5.461 14.165-11.093 17.92 0 0-6.144 19.627 14.848 31.403 0 0 8.704-11.776 11.093-22.187 1.877-11.264-9.216-17.408-14.848-27.136v0zM567.467 515.925c3.072-4.267 8.021-9.899 11.776-11.776 0 0 1.195-8.533 0.683-14.165-1.195-8.533-6.827-17.237-8.704-23.381 0 0-9.216 11.605-10.411 19.115-1.195 6.827-0.683 12.971-1.195 16.043-0.171 0 4.779 8.533 7.851 14.165v0zM591.531 474.624c2.389 3.755 11.093 18.432 11.093 28.843 0 0-9.899-5.461-19.115-1.195 0 0-0.683-14.165 0.683-18.432 1.707-3.755 2.901-6.144 7.339-9.216v0zM588.971 471.552c-1.195 1.195-5.632 5.461-7.339 7.339 0 0-6.827-12.971-8.021-16.555 0 0 3.755-0.683 7.339 1.877 3.755 3.072 4.437 3.584 8.021 7.339v0zM557.568 478.891c0.683-3.072 11.776-18.432 13.483-20.309 0 0-0.683-5.461-4.949-14.165-4.267-8.021-9.899-13.483-12.971-16.043 0 0-6.827 11.605-8.704 17.237-2.389 5.461-2.389 11.605-1.195 14.165 2.56 4.949 10.581 12.459 14.336 19.115v0zM511.317 387.243c1.195 4.267 8.021 9.216 10.411 16.555 1.877 4.267 1.195 9.899 0 12.971-2.389 4.267-9.216 14.165-10.411 17.237v0c-0.683-3.072-8.021-12.971-9.899-17.237-1.877-3.072-1.877-8.704 0-12.971 2.56-7.339 8.704-12.288 9.899-16.555v0zM540.331 438.272c-2.389-4.949-9.899-12.971-10.411-19.627-1.195-4.949-0.683-8.533 1.195-12.288 1.195-3.755 5.632-10.411 8.704-15.36 0 0 9.899 9.216 12.288 16.043 1.877 5.461 1.195 12.971-1.195 17.237-2.56 4.267-8.192 9.728-10.581 13.995v0zM569.344 440.149c-2.389-6.144-8.704-11.605-10.411-16.555-1.195-6.144-1.877-9.899 0.683-16.555 2.389-6.144 5.632-9.899 6.827-13.483 0 0 8.704 10.411 9.899 15.36 1.195 4.267 1.877 11.776 0 16.043-2.219 4.779-5.291 10.923-6.997 15.189v0zM511.317 305.323c0.683 5.461 11.776 21.504 12.288 38.741 0 8.533-7.339 22.187-12.288 27.136v0c-4.267-4.949-11.776-18.432-11.776-27.136 0.683-17.067 11.093-33.109 11.776-38.741v0zM528.555 398.848c0 0 14.165-16.555 14.165-25.771-0.683-11.776-8.021-19.115-9.216-25.771 0 0-7.339 8.704-10.411 14.165-3.072 6.144-5.632 11.776-4.267 19.115 0.512 6.656 2.389 11.605 9.728 18.261v0zM555.179 400.725c-2.389-3.072-8.704-14.165-6.827-20.992s8.704-16.043 11.093-20.309c0 0 5.632 11.776 6.827 16.555 1.195 5.632 0 14.336-11.093 24.747v0zM521.216 278.357c1.195 12.971 8.704 20.992 9.899 27.648 1.195 8.021 1.195 15.36-4.949 24.064-4.949-16.555-9.899-28.331-14.165-36.864 0 0-0.683 0-0.683-0.683 0 0.683 0 0.683 0 0.683-4.267 8.704-9.216 20.309-14.165 36.864-6.144-8.533-6.827-16.043-4.949-24.064 1.195-6.827 8.704-14.848 9.899-27.648 0.683-13.483-14.848-18.432-14.848-18.432 5.632-1.877 11.093-3.072 20.309 5.461 1.877 1.877 3.072 3.755 3.755 5.461 1.195-1.877 2.389-3.755 4.267-5.461 9.216-8.704 14.848-7.339 19.797-5.461 0 0-14.848 4.779-14.165 18.432v0zM473.771 366.933c1.877-4.949 6.144-14.165 6.827-17.237 1.195-5.461 0-11.776-9.899-18.432 0 0-6.144 4.267-8.704 9.899-2.389 5.461-1.195 9.216 1.195 12.288 2.56 2.389 8.021 9.216 10.581 13.483v0zM494.080 347.307c0-3.072-1.877-17.92-6.144-25.259-6.144-11.093-14.848-18.432-22.869-18.432-6.827 0-8.704 4.267-12.288 5.461 0 0 1.877 9.216 9.899 11.776 10.411 3.072 25.259 14.677 31.403 26.453v0zM468.139 327.509c-1.877 1.195-3.072 2.389-4.949 4.949 0 0-8.021-3.072-14.165-7.339s-12.288-11.776-15.36-15.36c0 0 9.216-2.389 15.36 0.683 0 0 1.877 8.533 8.704 12.971 1.195 0.512 6.144 2.219 10.411 4.096v0zM460.117 335.531c-1.195 2.389-4.267 6.144-3.755 12.971 0 0-12.971-8.533-17.237-11.776-3.755-3.072-12.288-11.776-14.165-14.848 0 0 10.411 2.389 17.92 4.949 8.704 3.243 14.165 6.827 17.237 8.704v0zM437.931 321.365c-7.339-3.072-23.381-5.461-30.208-7.339s-11.093-5.461-17.92-12.288c0 0 9.899-3.072 15.36-4.949 0 0 8.021 6.144 17.237 9.899 6.315 1.707 9.387 7.851 15.531 14.677v0zM423.253 273.92c1.195 1.195 3.072 3.755 1.877 7.339-1.195 3.072-6.827 6.144-10.411 8.021-5.632 2.389-21.504 6.827-27.136 8.533 0 0-2.389-3.072-3.755-6.827-0.683-1.195 0-2.389 2.389-2.389 4.267-1.195 14.848 1.195 17.92-0.683 2.389-1.877 1.877-4.267 1.877-6.827 0 0 4.949 3.072 8.021 2.389 4.267-0.853 6.656-2.731 9.216-9.557v0zM409.088 296.107c0.683-0.683 7.339-2.389 12.971-6.144 0 0 3.072 0.683 4.267 3.072s6.827 10.411 11.776 11.776c0 0-4.267 0.683-6.827 1.195 0 0-4.949-1.195-8.704-3.072-3.755-1.195-8.704-3.755-13.483-6.827v0zM450.389 306.005c-1.195-0.683-3.072-1.195-6.827-1.195 0 0-14.165-9.899-15.36-19.627-1.195-8.021 3.072-12.288 4.949-12.971 1.877-1.195 11.776-5.461 18.432 8.021 0 0-11.093-3.755-14.165 1.195-2.389 5.461 1.877 12.971 4.949 15.36 3.755 3.072 11.093 4.949 15.36 4.267 0 0-3.755 3.072-7.339 4.949v0zM357.888 194.56c1.877 7.339 3.755 14.848 6.827 21.504 6.827 13.483 22.187 49.323 54.784 55.467 3.072 0.683-3.755 8.533-6.827 8.021-3.072-0.683-8.704-4.267-11.093-5.461 0 0 0 7.339 0 8.533s-1.195 1.877-2.389 1.877c-1.195 0-9.216 0-11.776-2.389-7.339-8.533-20.309-32.085-27.136-49.152-7.339-16.555-11.776-22.187-19.797-19.627-7.339 3.072-11.776 11.093-24.576 8.533-4.267-0.683-9.899-3.755-13.483-8.021 1.195-2.389 2.389-4.949 8.704-4.949 6.144 0 17.92-2.389 24.064-6.827 6.656-4.949 13.483-6.315 22.699-7.509v0zM487.936 305.323c0.683-5.461 3.072-10.411 6.144-16.043 0 0-9.899-45.568-45.568-49.152 0 0 0.683 9.899 11.093 16.555 10.411 7.339 26.453 18.432 25.259 35.669 0 0-2.389-0.683-8.021-6.827-4.949-6.827-16.043-25.259-33.28-25.259 0 0 2.389 8.533 10.411 13.483 7.339 4.949 17.237 11.776 21.504 19.115 4.437 7.68 9.387 11.264 12.459 12.459v0zM470.699 139.264l22.187-30.208 16.043 29.525-5.632 10.411c-4.267-8.021-9.216-16.043-11.776-20.992-1.877 3.072-7.339 10.411-14.848 20.992l-5.973-9.728zM465.067 165.035c-20.992 30.208-47.445 66.389-50.005 70.144l8.021 6.144-25.941 9.899 0.683-28.331 8.704 6.144 52.395-73.216 6.144 9.216zM286.379 331.776c6.144 7.339 17.237 1.195 27.819-9.216 11.093-9.899 18.432-20.309 11.776-27.136-5.632-6.827-17.237-1.195-28.331 9.216-11.264 9.899-18.091 20.48-11.264 27.136v0zM303.616 208.213l-0.683 0.683c-6.144 5.461-9.216 12.971-9.216 21.504 0 16.555 13.483 30.208 29.525 30.208 16.725 0 30.208-13.483 30.208-30.208 0-1.877-0.683-5.461-0.683-5.461 1.195 2.389 6.144 13.483 7.339 16.043-4.267 16.043-19.115 27.648-37.035 27.648-14.848 0-27.819-8.533-33.963-21.504 2.389 15.36 9.899 28.843 14.848 33.792 6.827 6.144 17.237 8.021 17.237 8.021-6.827-1.195-16.043 3.072-26.453 12.971-10.411 9.216-15.36 16.555-15.36 23.381 0.683-9.216 0-14.848-2.389-22.187-3.755-10.411-13.653-29.525-9.899-51.029 1.877-12.288 10.411-30.208 24.576-44.373 3.072-3.072 4.267-8.021 4.949-10.411 0 0 20.992 0 26.453-0.683 0 0 4.949 0.683 4.949 3.755s-3.072 3.755-5.632 3.755-12.629-0.341-18.773 4.096v0zM421.888 200.704c-14.165-4.949-27.819-7.339-40.619-9.899-8.021-1.195-16.725-1.195-24.747-1.195 0-1.195 0-3.072-0.683-4.267 0 0 1.877-1.877 1.877-3.755 8.021-0.683 16.043 0 24.576 1.195 14.165 2.389 29.013 5.461 44.373 11.093l-4.779 6.827zM444.075 202.069c18.432 9.899 36.352 25.259 52.395 49.152l2.389 4.949c-4.267-1.877-9.899-0.683-9.899-0.683s-1.195-1.195-1.195-1.877c-14.848-22.187-31.403-35.669-48.64-44.885l4.949-6.656zM324.608 194.048c-3.072 0.683-10.411 0-15.36-0.683-5.632-0.683-11.093-1.877-11.776-4.949-0.683-2.389 1.195-5.461 3.755-9.899 1.877-2.389 5.632-0.683 7.339 0 2.389 0.683 14.848 7.339 16.725 9.899 1.707 1.877 2.901 4.949-0.683 5.632v0zM336.896 186.027c-1.195 0.683-4.267 1.877-8.021 0.683-3.072-1.195-15.36-8.021-16.043-11.605-1.195-3.072 0.683-4.949 2.389-5.461 1.877-0.683 4.267-1.877 6.144-1.877 3.072 0 5.632 1.877 7.339 3.755 1.195 1.877 7.339 8.533 8.021 9.899 0.853 1.536 1.365 3.925 0.171 4.608v0zM338.091 178.688c-1.877-2.389-6.144-8.021-6.827-9.216-0.683-0.683 0-2.389 1.877-2.389 1.195 0.683 9.899 1.195 14.165 4.267 4.949 3.755 8.021 9.899 4.949 12.288-3.072 1.707-8.533 1.195-14.165-4.949v0zM341.163 196.437c-1.877 0.683-8.021 1.877-9.216 0-1.877-2.389-0.683-5.461 4.267-8.021 4.949-1.877 14.165-3.755 16.043-1.195 1.877 2.389-0.512 6.827-11.093 9.216v0zM548.864 366.933c-1.195-4.949-6.144-14.165-6.827-17.237-1.195-5.461 0.683-11.776 9.899-18.432 0 0 6.827 4.267 9.216 9.899 1.877 5.461 0.683 9.216-1.877 12.288-2.389 2.389-7.851 9.216-10.411 13.483v0zM528.555 347.307c0-3.072 2.389-17.92 6.827-25.259 5.461-11.093 14.848-18.432 22.187-18.432s8.704 4.267 12.288 5.461c0 0-1.877 9.216-9.899 11.776-9.728 3.072-25.259 14.677-31.403 26.453v0zM554.496 327.509c1.877 1.195 3.072 2.389 5.632 4.949 0 0 7.339-3.072 13.483-7.339 6.827-4.267 12.971-11.776 16.043-15.36 0 0-9.216-2.389-15.36 0.683 0 0-2.389 8.533-8.704 12.971-1.877 0.512-6.827 2.219-11.093 4.096v0zM562.517 335.531c1.877 2.389 4.267 6.144 3.755 12.971 0 0 13.483-8.533 17.237-11.776 4.267-3.072 12.288-11.776 14.165-14.848 0 0-9.899 2.389-17.92 4.949-8.021 3.243-14.165 6.827-17.237 8.704v0zM585.387 321.365c6.827-3.072 22.869-5.461 29.525-7.339 6.827-1.877 11.776-5.461 18.432-12.288 0 0-10.411-3.072-15.36-4.949 0 0-8.704 6.144-17.92 9.899-5.461 1.707-8.533 7.851-14.677 14.677v0zM600.064 273.92c-1.877 1.195-3.755 3.755-1.877 7.339 0.683 3.072 6.827 6.144 10.411 8.021 5.632 2.389 21.504 6.827 26.453 8.533 0 0 3.072-3.072 4.267-6.827 0.683-1.195-0.683-2.389-2.389-2.389-4.267-1.195-15.36 1.195-17.92-0.683-3.072-1.877-1.877-4.267-1.877-6.827 0 0-4.949 3.072-8.021 2.389-4.096-0.853-6.485-2.731-9.045-9.557v0zM614.229 296.107c-1.195-0.683-7.339-2.389-13.483-6.144 0 0-2.389 0.683-3.755 3.072-1.195 2.389-6.827 10.411-11.776 11.776 0 0 3.755 0.683 6.144 1.195 0 0 5.632-1.195 9.216-3.072 3.755-1.195 8.192-3.755 13.653-6.827v0zM572.928 306.005c1.195-0.683 2.389-1.195 6.144-1.195 0 0 14.165-9.899 16.043-19.627 1.195-8.021-3.072-12.288-4.949-12.971-2.389-1.195-12.288-5.461-18.432 8.021 0 0 10.411-3.755 13.653 1.195 3.072 5.461-1.877 12.971-4.949 15.36-3.755 3.072-10.411 4.949-14.848 4.267 0 0 3.072 3.072 7.339 4.949v0zM665.429 194.56c-1.877 7.339-3.755 14.848-7.339 21.504-6.144 13.483-21.504 49.323-54.272 55.467-3.072 0.683 3.755 8.533 6.144 8.021 3.072-0.683 9.216-4.267 11.776-5.461 0 0 0 7.339 0 8.533s1.195 1.877 2.389 1.877c1.195 0 9.216 0 11.776-2.389 7.339-8.533 19.797-32.085 27.136-49.152 6.827-16.555 11.776-22.187 19.115-19.627 7.339 3.072 12.288 11.093 25.259 8.533 4.267-0.683 9.216-3.755 13.483-8.021-1.195-2.389-2.389-4.949-8.704-4.949-6.144 0-17.92-2.389-24.576-6.827-6.144-4.949-12.971-6.315-22.187-7.509v0zM535.381 305.323c-0.683-5.461-3.755-10.411-6.144-16.043 0 0 9.899-45.568 45.568-49.152 0 0-0.683 9.899-11.776 16.555-10.411 7.339-26.453 18.432-25.259 35.669 0 0 3.072-0.683 8.021-6.827 4.949-6.827 16.725-25.259 33.963-25.259 0 0-3.072 8.533-10.411 13.483s-17.237 11.776-21.504 19.115c-4.437 7.68-9.387 11.264-12.459 12.459v0zM511.317 261.632c2.389-6.144 16.043-25.259 21.504-30.72 6.144-5.461 20.309-19.627 28.331-27.136 0 0-22.187 5.461-34.475 16.555 0 0-8.704-4.949-14.848-4.949h-0.683c-6.144 0-15.36 4.949-15.36 4.949-12.288-11.093-33.963-16.555-33.963-16.555 7.339 7.339 22.187 21.504 27.819 27.136 6.315 5.461 19.797 24.576 21.675 30.72v0zM512 210.603c4.267 0 9.216 1.877 11.776 3.072-2.389-5.461-7.339-13.483-12.288-17.237v0c-4.267 3.755-9.216 11.776-11.776 17.237 2.389-1.195 6.827-3.072 11.776-3.072h0.512zM530.432 109.056l85.675 119.979 9.216-6.144v28.331l-25.941-9.899 8.704-6.144c-4.267-5.461-68.437-95.403-76.971-107.008l-38.741 70.827-4.267-7.339-35.157-52.395-8.704 5.461v-27.648l26.453 10.411-9.216 5.461c4.949 7.339 24.064 35.669 30.208 45.568l38.741-69.461zM545.792 156.501c-5.632 8.533-11.093 17.237-14.165 22.187-2.389-4.267-6.827-12.288-11.776-20.992l-6.144 11.093 16.725 30.208 4.949-7.339 17.237-25.771-6.827-9.387zM563.712 148.48l6.144-9.216 8.704 5.461 0.683-27.648-26.453 10.411 8.704 5.461c-0.683 1.877-2.389 3.755-3.755 6.144l5.973 9.387zM736.939 331.776c-6.144 7.339-17.237 1.195-28.331-9.216-11.093-9.899-17.92-20.309-11.776-27.136s17.92-1.195 28.331 9.216c11.093 9.899 17.92 20.48 11.776 27.136v0zM719.019 208.213c0.683 0 0.683 0.683 1.195 0.683 5.632 5.461 9.216 12.971 9.216 21.504 0 16.555-13.483 30.208-30.208 30.208-16.555 0-29.525-13.483-29.525-30.208 0-1.877 0-5.461 0-5.461-1.195 2.389-6.144 13.483-6.827 16.043 4.267 16.043 19.115 27.648 36.352 27.648 15.36 0 28.331-8.533 34.475-21.504-2.389 15.36-9.899 28.843-15.36 33.792-6.144 6.144-17.237 8.021-17.237 8.021 7.339-1.195 16.725 3.072 27.136 12.971 9.899 9.216 14.848 16.555 15.36 23.381-0.683-9.216-0.683-14.848 2.389-22.187 3.755-10.411 13.483-29.525 9.899-51.029-1.877-12.288-10.411-30.208-25.259-44.373-3.072-3.072-4.267-8.021-4.267-10.411 0 0-21.504 0-26.453-0.683 0 0-4.949 0.683-4.949 3.755s3.072 3.755 5.632 3.755c2.389-0.341 12.971-0.341 18.432 4.096v0zM578.56 202.069c-17.92 9.899-35.84 25.259-51.712 49.152l-3.072 4.949c4.267-1.877 10.411-0.683 10.411-0.683s0.683-1.195 1.195-1.877c14.848-22.187 31.403-35.669 48.128-44.885l-4.949-6.656zM601.259 200.704c13.483-4.949 27.136-7.339 40.107-9.899 8.704-1.195 17.237-1.195 24.576-1.195 0-1.195 0-3.072 0.683-4.267 0 0-1.195-1.877-1.195-3.755-8.021-0.683-16.725 0-25.259 1.195-14.165 2.389-29.013 5.461-43.691 11.093l4.779 6.827zM698.709 194.048c2.389 0.683 10.411 0 15.36-0.683s11.093-1.877 11.776-4.949c0.683-2.389-1.195-5.461-3.755-9.899-1.877-2.389-5.461-0.683-8.021 0-1.877 0.683-14.165 7.339-16.725 9.899-1.707 1.877-2.389 4.949 1.365 5.632v0zM686.421 186.027c1.195 0.683 4.267 1.877 7.339 0.683 3.755-1.195 16.043-8.021 16.725-11.605 0.683-3.072-1.195-4.949-3.072-5.461-1.877-0.683-3.755-1.877-5.632-1.877-3.072 0-6.144 1.877-7.339 3.755-1.877 1.877-7.339 8.533-8.021 9.899-1.195 1.536-1.195 3.925 0 4.608v0zM684.544 178.688c1.877-2.389 6.827-8.021 7.339-9.216 0.683-0.683 0-2.389-1.877-2.389-1.195 0.683-9.899 1.195-14.848 4.267-4.267 3.755-8.021 9.899-4.267 12.288 3.243 1.707 8.192 1.195 13.653-4.949v0zM682.155 196.437c1.195 0.683 8.021 1.877 9.216 0 1.877-2.389 0.683-5.461-4.267-8.021-4.949-1.877-14.165-3.755-16.043-1.195-1.877 2.389 0.512 6.827 11.093 9.216v0z" />
<glyph unicode="&#xe916;" glyph-name="Copter" d="M169.301 939.861c-39.424-7.509-70.656-24.064-99.157-53.077-24.917-25.088-40.96-53.76-49.664-88.235-4.608-18.432-4.608-64.341 0-82.603 9.045-35.84 24.747-63.488 51.541-89.941 19.456-19.285 38.4-31.915 61.952-41.301 23.723-9.216 37.205-11.605 67.413-11.605 35.157 0 42.837 1.707 86.187 19.456 2.731 1.024 36.352-44.544 41.984-57.173 4.096-8.533 4.096-11.776 4.096-87.040s0-78.677-4.096-87.040c-5.632-12.629-39.253-58.197-41.984-57.173-43.179 17.749-51.029 19.456-86.187 19.456-39.424 0-66.389-7.509-98.475-27.477-18.603-11.435-46.933-39.765-58.368-58.368-19.968-32.085-27.477-59.051-27.477-98.475 0-30.891 2.389-43.861 12.629-69.291 18.091-45.397 58.368-85.163 104.277-103.253 23.723-9.216 37.205-11.605 67.413-11.605 39.424 0 66.389 7.509 98.475 27.477 18.603 11.435 46.933 39.765 58.368 58.368 19.968 32.085 27.477 59.051 27.477 98.475 0 35.157-1.707 42.837-19.456 86.187-1.024 2.731 44.203 36.181 55.979 41.301 11.776 5.291 28.501 7.339 45.739 5.632 18.603-1.877 66.389-1.877 84.992 0 17.237 1.707 33.963-0.341 45.739-5.632 4.608-2.048 19.456-11.776 32.597-21.504 18.773-13.653 23.893-18.432 22.869-20.821-15.531-35.328-20.992-62.635-19.456-93.867 2.56-48.981 20.651-88.576 56.149-123.563 25.088-24.576 52.907-39.936 87.211-48.64 18.432-4.608 64.341-4.608 82.603 0 35.157 8.875 63.317 24.747 89.259 50.347 25.771 25.941 41.472 54.101 50.347 89.259 4.608 18.432 4.608 64.341 0 82.603-8.704 34.304-24.064 62.123-48.64 87.381-34.987 35.499-74.581 53.76-123.563 56.149-31.232 1.536-58.539-4.096-93.867-19.456-2.56-1.195-7.168 4.096-20.821 22.869-9.728 13.141-19.285 27.989-21.504 32.597-5.291 11.776-7.168 28.331-5.632 46.763 1.877 19.968 1.877 63.147 0 83.115-1.536 18.432 0.341 34.987 5.632 46.763s38.571 57.003 41.301 55.979c43.179-17.749 51.029-19.456 86.187-19.456 39.424 0 66.389 7.509 98.475 27.477 18.603 11.435 46.933 39.765 58.368 58.368 19.968 32.085 27.477 59.051 27.477 98.475 0 38.741-6.144 61.952-25.771 95.573-11.435 19.627-40.107 48.981-60.075 61.269-32.256 19.968-59.051 27.477-98.475 27.477s-66.389-7.509-98.475-27.477c-18.603-11.435-46.933-39.765-58.368-58.368-19.968-32.085-27.477-59.051-27.477-98.475 0-35.157 1.707-42.837 19.456-86.187 1.024-2.731-44.544-36.352-57.173-41.984-8.533-3.925-11.947-4.096-87.040-4.096s-78.677 0.171-87.040 4.096c-12.629 5.632-58.197 39.253-57.173 41.984 17.749 43.179 19.456 51.029 19.456 86.187 0 30.208-2.389 43.691-11.605 67.413-9.045 22.869-22.016 42.496-40.277 61.269-25.941 26.453-52.565 42.155-87.723 51.2-18.944 4.608-57.344 5.973-76.629 2.219zM238.251 907.264c19.285-5.461 32.427-10.923 46.763-20.48 61.44-40.107 86.016-114.176 61.099-183.296-3.925-10.411-6.485-15.531-7.851-14.507-1.365 0.853-22.016 15.701-46.080 33.28-38.571 27.819-44.032 32.427-44.032 36.864 0 2.901-1.024 7.851-2.048 11.435-2.048 5.803-1.707 6.315 11.947 20.992 17.237 18.432 30.208 35.328 34.987 46.592 3.413 7.339 3.413 8.704 1.024 11.264s-3.925 2.56-11.264-1.024c-11.264-4.779-28.16-17.749-46.592-34.987-14.677-13.653-15.189-14.165-20.992-11.947-15.701 5.461-31.915 1.024-45.227-12.288s-17.749-29.525-12.288-45.227c2.048-5.803 1.707-6.315-11.947-20.992-17.237-18.432-30.208-35.328-34.987-46.592-3.413-7.339-3.413-8.704-1.024-11.264 2.56-2.56 3.925-2.56 11.264 1.024 11.264 4.779 28.16 17.749 46.592 34.987 14.677 13.653 15.189 14.165 20.992 11.947 3.413-1.195 8.533-2.048 11.435-2.048 4.437 0 9.045-5.461 36.864-43.861 17.579-24.405 32.427-45.056 33.28-46.421 1.024-1.365-4.096-4.096-14.507-7.851-69.12-24.917-143.189-0.341-183.296 61.099-36.864 56.149-31.915 131.243 11.776 182.955 23.211 27.307 52.736 44.544 88.917 52.395 15.019 3.072 50.005 2.048 65.195-2.048zM856.235 907.264c29.355-8.192 52.395-20.992 72.192-41.131 60.245-60.245 60.245-157.355 0-217.6-35.84-36.181-87.723-52.395-136.363-43.008-18.944 3.584-42.496 12.629-40.789 15.531 0.512 1.195 15.701 21.845 33.28 46.080 27.819 38.229 32.427 43.861 36.864 43.861 2.901 0 7.851 1.024 11.435 2.048 5.803 2.048 6.315 1.707 20.992-11.947 18.432-17.237 35.328-30.208 46.592-34.987 7.339-3.413 8.704-3.413 11.264-1.024 2.56 2.56 2.56 3.925-1.024 11.264-4.779 11.264-17.749 28.16-34.987 46.592-13.653 14.677-14.165 15.189-11.947 20.992 5.461 15.701 1.024 31.915-12.288 45.227s-29.525 17.749-45.227 12.288c-5.803-2.048-6.315-1.707-20.992 11.947-18.432 17.237-35.328 30.208-46.592 34.987-7.339 3.413-8.704 3.413-11.264 1.024-2.56-2.56-2.56-3.925 1.024-11.264 4.779-11.264 17.749-28.16 34.987-46.592 13.653-14.677 14.165-15.189 11.947-20.992-1.195-3.413-2.048-8.533-2.048-11.435 0-4.437-5.461-9.045-43.691-36.864-24.064-17.408-44.885-32.256-46.080-33.109-3.072-1.877-11.776 20.651-15.701 40.619-8.533 44.203 4.267 91.819 33.963 126.805 23.211 27.307 52.736 44.544 88.917 52.395 15.36 3.413 50.517 2.389 65.536-1.707zM228.864 290.987c19.968-3.925 42.496-12.629 40.619-15.701-0.853-1.365-15.701-22.016-32.939-46.080-27.819-38.229-32.427-43.691-36.864-43.691-2.901 0-7.851-1.024-11.435-2.048-5.803-2.048-6.315-1.707-20.992 11.947-18.432 17.237-35.328 30.208-46.592 34.987-7.339 3.413-8.704 3.413-11.264 1.024-2.56-2.56-2.56-3.925 1.024-11.264 4.779-11.264 17.749-28.16 34.987-46.592 13.653-14.677 14.165-15.189 11.947-20.992-11.605-33.109 24.576-69.12 57.515-57.515 5.803 2.048 6.315 1.707 20.992-11.947 18.432-17.237 35.328-30.208 46.592-34.987 7.339-3.413 8.704-3.413 11.264-1.024s2.56 3.925-1.024 11.264c-4.779 11.264-17.749 28.16-34.987 46.592-13.653 14.677-14.165 15.189-11.947 20.992 1.195 3.413 2.048 8.533 2.048 11.435 0 4.437 5.632 9.045 44.032 36.864 24.064 17.579 44.885 32.597 45.909 33.28 2.901 1.707 11.776-21.845 15.531-40.789 9.216-48.64-6.997-100.352-43.008-136.363-51.371-51.371-132.096-60.075-192.171-20.651-60.757 39.936-85.675 113.493-61.611 182.101 24.917 69.973 99.84 113.152 172.373 99.157zM856.235 289.28c29.355-8.192 52.395-20.992 72.192-41.131 50.688-50.688 59.904-128.683 22.357-189.269-45.227-73.728-143.189-96.256-214.699-49.323-61.44 40.107-86.016 114.176-61.099 183.296 3.925 10.411 6.485 15.531 7.851 14.507 1.365-0.853 22.016-15.701 46.421-33.28 38.4-27.819 43.861-32.427 43.861-36.864 0-2.901 1.024-7.851 2.048-11.435 2.048-5.803 1.707-6.315-12.629-21.675-16.725-17.749-30.549-36.523-35.157-47.104-2.56-6.315-2.731-7.68-0.171-10.069 2.56-2.56 3.925-2.56 11.264 1.024 11.264 4.779 28.16 17.749 46.592 34.987 14.677 13.653 15.189 14.165 20.992 11.947 15.701-5.461 31.915-1.024 45.227 12.288s17.749 29.525 12.288 45.227c-2.048 5.803-1.707 6.315 11.947 20.992 17.237 18.432 30.208 35.328 34.987 46.592 3.413 7.339 3.413 8.704 1.024 11.264s-3.584 2.389-10.069-0.171c-10.581-4.608-29.355-18.432-47.104-35.157-15.189-14.336-15.872-14.677-21.675-12.629-3.413 1.195-8.533 2.048-11.435 2.048-4.437 0-9.045 5.632-36.864 44.032-17.579 24.064-32.597 44.885-33.28 45.909-1.536 2.731 20.821 11.435 39.253 15.531 15.701 3.413 50.859 2.56 65.877-1.536z" />
</font></defs></svg>